%YAML 1.1
%TAG !u! tag:unity3d.com,2011:
--- !u!114 &11400000
MonoBehaviour:
  m_ObjectHideFlags: 0
  m_CorrespondingSourceObject: {fileID: 0}
  m_PrefabInstance: {fileID: 0}
  m_PrefabAsset: {fileID: 0}
  m_GameObject: {fileID: 0}
  m_Enabled: 1
  m_EditorHideFlags: 0
  m_Script: {fileID: 11500000, guid: af074dba030af45af95ab60f307eb78c, type: 3}
  m_Name: HitReaction4
  m_EditorClassIdentifier: 
  animationClip: {fileID: 74645426106054030, guid: 95df7e77b10b8413bb4d10dc7be2ab6c,
    type: 2}
  avatarMask: {fileID: 0}
  transitionIn: 0
  transitionOut: 0.25
  movementForward:
    serializedVersion: 2
    m_Curve:
    - serializedVersion: 3
      time: 0
      value: 0
      inSlope: -0.61551327
      outSlope: -0.61551327
      tangentMode: 0
      weightedMode: 3
      inWeight: 0.33333334
      outWeight: 0.33333334
    - serializedVersion: 3
      time: 0.022222223
      value: -0.010258555
      inSlope: -0.61551327
      outSlope: -1.7216097
      tangentMode: 0
      weightedMode: 3
      inWeight: 0.33333334
      outWeight: 0.33333334
    - serializedVersion: 3
      time: 0.044444446
      value: -0.038952053
      inSlope: -1.7216097
      outSlope: -2.6401844
      tangentMode: 0
      weightedMode: 3
      inWeight: 0.33333334
      outWeight: 0.33333334
    - serializedVersion: 3
      time: 0.06666667
      value: -0.08295512
      inSlope: -2.6401844
      outSlope: -3.3546884
      tangentMode: 0
      weightedMode: 3
      inWeight: 0.33333334
      outWeight: 0.33333334
    - serializedVersion: 3
      time: 0.08888889
      value: -0.1388666
      inSlope: -3.3546884
      outSlope: -3.8468065
      tangentMode: 0
      weightedMode: 3
      inWeight: 0.33333334
      outWeight: 0.33333334
    - serializedVersion: 3
      time: 0.11111111
      value: -0.20298004
      inSlope: -3.8468065
      outSlope: -4.114777
      tangentMode: 0
      weightedMode: 3
      inWeight: 0.33333334
      outWeight: 0.33333334
    - serializedVersion: 3
      time: 0.13333334
      value: -0.27155966
      inSlope: -4.114777
      outSlope: -4.1629014
      tangentMode: 0
      weightedMode: 3
      inWeight: 0.33333334
      outWeight: 0.33333334
    - serializedVersion: 3
      time: 0.15555556
      value: -0.34094134
      inSlope: -4.1629014
      outSlope: -3.9908268
      tangentMode: 0
      weightedMode: 3
      inWeight: 0.33333334
      outWeight: 0.33333334
    - serializedVersion: 3
      time: 0.17777778
      value: -0.40745515
      inSlope: -3.9908268
      outSlope: -3.6034095
      tangentMode: 0
      weightedMode: 3
      inWeight: 0.33333334
      outWeight: 0.33333334
    - serializedVersion: 3
      time: 0.2
      value: -0.46751195
      inSlope: -3.6034095
      outSlope: -3.0185251
      tangentMode: 0
      weightedMode: 3
      inWeight: 0.33333334
      outWeight: 0.33333334
    - serializedVersion: 3
      time: 0.22222222
      value: -0.5178207
      inSlope: -3.0185251
      outSlope: -1.9585724
      tangentMode: 0
      weightedMode: 3
      inWeight: 0.33333334
      outWeight: 0.33333334
    - serializedVersion: 3
      time: 0.24444444
      value: -0.55046356
      inSlope: -1.9585724
      outSlope: -2.1044483
      tangentMode: 0
      weightedMode: 3
      inWeight: 0.33333334
      outWeight: 0.33333334
    - serializedVersion: 3
      time: 0.26666668
      value: -0.58553773
      inSlope: -2.1044483
      outSlope: -2.5662355
      tangentMode: 0
      weightedMode: 3
      inWeight: 0.33333334
      outWeight: 0.33333334
    - serializedVersion: 3
      time: 0.2888889
      value: -0.6283083
      inSlope: -2.5662355
      outSlope: -2.8015652
      tangentMode: 0
      weightedMode: 3
      inWeight: 0.33333334
      outWeight: 0.33333334
    - serializedVersion: 3
      time: 0.31111112
      value: -0.6750011
      inSlope: -2.8015652
      outSlope: -2.186997
      tangentMode: 0
      weightedMode: 3
      inWeight: 0.33333334
      outWeight: 0.33333334
    - serializedVersion: 3
      time: 0.33333334
      value: -0.711451
      inSlope: -2.186997
      outSlope: -1.750913
      tangentMode: 0
      weightedMode: 3
      inWeight: 0.33333334
      outWeight: 0.33333334
    - serializedVersion: 3
      time: 0.35555556
      value: -0.7406329
      inSlope: -1.750913
      outSlope: -2.0473344
      tangentMode: 0
      weightedMode: 3
      inWeight: 0.33333334
      outWeight: 0.33333334
    - serializedVersion: 3
      time: 0.37777779
      value: -0.7747551
      inSlope: -2.0473344
      outSlope: -2.1669338
      tangentMode: 0
      weightedMode: 3
      inWeight: 0.33333334
      outWeight: 0.33333334
    - serializedVersion: 3
      time: 0.4
      value: -0.8108707
      inSlope: -2.1669338
      outSlope: -2.090251
      tangentMode: 0
      weightedMode: 3
      inWeight: 0.33333334
      outWeight: 0.33333334
    - serializedVersion: 3
      time: 0.42222223
      value: -0.8457082
      inSlope: -2.090251
      outSlope: -1.7605209
      tangentMode: 0
      weightedMode: 3
      inWeight: 0.33333334
      outWeight: 0.33333334
    - serializedVersion: 3
      time: 0.44444445
      value: -0.87505025
      inSlope: -1.7605209
      outSlope: -1.6184
      tangentMode: 0
      weightedMode: 3
      inWeight: 0.33333334
      outWeight: 0.33333334
    - serializedVersion: 3
      time: 0.46666667
      value: -0.90202355
      inSlope: -1.6184
      outSlope: -1.6077746
      tangentMode: 0
      weightedMode: 3
      inWeight: 0.33333334
      outWeight: 0.33333334
    - serializedVersion: 3
      time: 0.4888889
      value: -0.92881984
      inSlope: -1.6077746
      outSlope: -1.5743089
      tangentMode: 0
      weightedMode: 3
      inWeight: 0.33333334
      outWeight: 0.33333334
    - serializedVersion: 3
      time: 0.5111111
      value: -0.9550583
      inSlope: -1.5743089
      outSlope: -1.5177767
      tangentMode: 0
      weightedMode: 3
      inWeight: 0.33333334
      outWeight: 0.33333334
    - serializedVersion: 3
      time: 0.53333336
      value: -0.98035455
      inSlope: -1.5177767
      outSlope: -1.4375367
      tangentMode: 0
      weightedMode: 3
      inWeight: 0.33333334
      outWeight: 0.33333334
    - serializedVersion: 3
      time: 0.5555555
      value: -1.0043135
      inSlope: -1.4375367
      outSlope: -1.3333089
      tangentMode: 0
      weightedMode: 3
      inWeight: 0.33333334
      outWeight: 0.33333334
    - serializedVersion: 3
      time: 0.5777778
      value: -1.0265353
      inSlope: -1.3333089
      outSlope: -1.2045956
      tangentMode: 0
      weightedMode: 3
      inWeight: 0.33333334
      outWeight: 0.33333334
    - serializedVersion: 3
      time: 0.59999996
      value: -1.0466119
      inSlope: -1.2045956
      outSlope: -1.0504076
      tangentMode: 0
      weightedMode: 3
      inWeight: 0.33333334
      outWeight: 0.33333334
    - serializedVersion: 3
      time: 0.62222224
      value: -1.0641187
      inSlope: -1.0504076
      outSlope: -0.8695104
      tangentMode: 0
      weightedMode: 3
      inWeight: 0.33333334
      outWeight: 0.33333334
    - serializedVersion: 3
      time: 0.6444444
      value: -1.0786105
      inSlope: -0.8695104
      outSlope: -0.6605739
      tangentMode: 0
      weightedMode: 3
      inWeight: 0.33333334
      outWeight: 0.33333334
    - serializedVersion: 3
      time: 0.6666667
      value: -1.0896201
      inSlope: -0.6605739
      outSlope: -0.42312604
      tangentMode: 0
      weightedMode: 3
      inWeight: 0.33333334
      outWeight: 0.33333334
    - serializedVersion: 3
      time: 0.68888885
      value: -1.0966722
      inSlope: -0.42312604
      outSlope: -0.15817124
      tangentMode: 0
      weightedMode: 3
      inWeight: 0.33333334
      outWeight: 0.33333334
    - serializedVersion: 3
      time: 0.7111111
      value: -1.0993084
      inSlope: -0.15817124
      outSlope: -0.0065624774
      tangentMode: 0
      weightedMode: 3
      inWeight: 0.33333334
      outWeight: 0.33333334
    - serializedVersion: 3
      time: 0.73333335
      value: -1.0994178
      inSlope: -0.0065624774
      outSlope: 0.012377513
      tangentMode: 0
      weightedMode: 3
      inWeight: 0.33333334
      outWeight: 0.33333334
    - serializedVersion: 3
      time: 0.75555557
      value: -1.0992115
      inSlope: 0.012377513
      outSlope: 0.028519062
      tangentMode: 0
      weightedMode: 3
      inWeight: 0.33333334
      outWeight: 0.33333334
    - serializedVersion: 3
      time: 0.77777773
      value: -1.0987362
      inSlope: 0.028519062
      outSlope: 0.04135419
      tangentMode: 0
      weightedMode: 3
      inWeight: 0.33333334
      outWeight: 0.33333334
    - serializedVersion: 3
      time: 0.8
      value: -1.0980469
      inSlope: 0.04135419
      outSlope: 0.051006723
      tangentMode: 0
      weightedMode: 3
      inWeight: 0.33333334
      outWeight: 0.33333334
    - serializedVersion: 3
      time: 0.82222223
      value: -1.0971968
      inSlope: 0.051006723
      outSlope: 0.057413634
      tangentMode: 0
      weightedMode: 3
      inWeight: 0.33333334
      outWeight: 0.33333334
    - serializedVersion: 3
      time: 0.84444445
      value: -1.0962399
      inSlope: 0.057413634
      outSlope: 0.06058401
      tangentMode: 0
      weightedMode: 3
      inWeight: 0.33333334
      outWeight: 0.33333334
    - serializedVersion: 3
      time: 0.8666666
      value: -1.0952302
      inSlope: 0.06058401
      outSlope: 0.0604014
      tangentMode: 0
      weightedMode: 3
      inWeight: 0.33333334
      outWeight: 0.33333334
    - serializedVersion: 3
      time: 0.8888889
      value: -1.0942235
      inSlope: 0.0604014
      outSlope: 0.05694693
      tangentMode: 0
      weightedMode: 3
      inWeight: 0.33333334
      outWeight: 0.33333334
    - serializedVersion: 3
      time: 0.9111111
      value: -1.0932744
      inSlope: 0.05694693
      outSlope: 0.05014663
      tangentMode: 0
      weightedMode: 3
      inWeight: 0.33333334
      outWeight: 0.33333334
    - serializedVersion: 3
      time: 0.93333334
      value: -1.0924386
      inSlope: 0.05014663
      outSlope: 0.03998462
      tangentMode: 0
      weightedMode: 3
      inWeight: 0.33333334
      outWeight: 0.33333334
    - serializedVersion: 3
      time: 0.9555555
      value: -1.0917722
      inSlope: 0.03998462
      outSlope: 0.026494792
      tangentMode: 0
      weightedMode: 3
      inWeight: 0.33333334
      outWeight: 0.33333334
    - serializedVersion: 3
      time: 0.9777778
      value: -1.0913306
      inSlope: 0.026494792
      outSlope: 0.009584436
      tangentMode: 0
      weightedMode: 3
      inWeight: 0.33333334
      outWeight: 0.33333334
    - serializedVersion: 3
      time: 1
      value: -1.0911709
      inSlope: 0.009584436
      outSlope: 0.009584436
      tangentMode: 0
      weightedMode: 3
      inWeight: 0.33333334
      outWeight: 0.33333334
    m_PreInfinity: 2
    m_PostInfinity: 2
    m_RotationOrder: 4
  movementSides:
    serializedVersion: 2
    m_Curve:
    - serializedVersion: 3
      time: 0
      value: 0
      inSlope: 0.5612505
      outSlope: 0.5612505
      tangentMode: 0
      weightedMode: 3
      inWeight: 0.33333334
      outWeight: 0.33333334
    - serializedVersion: 3
      time: 0.022222223
      value: 0.009354176
      inSlope: 0.5612505
      outSlope: 1.5073597
      tangentMode: 0
      weightedMode: 3
      inWeight: 0.33333334
      outWeight: 0.33333334
    - serializedVersion: 3
      time: 0.044444446
      value: 0.03447684
      inSlope: 1.5073597
      outSlope: 2.167297
      tangentMode: 0
      weightedMode: 3
      inWeight: 0.33333334
      outWeight: 0.33333334
    - serializedVersion: 3
      time: 0.06666667
      value: 0.07059845
      inSlope: 2.167297
      outSlope: 2.541892
      tangentMode: 0
      weightedMode: 3
      inWeight: 0.33333334
      outWeight: 0.33333334
    - serializedVersion: 3
      time: 0.08888889
      value: 0.11296333
      inSlope: 2.541892
      outSlope: 2.6653666
      tangentMode: 0
      weightedMode: 3
      inWeight: 0.33333334
      outWeight: 0.33333334
    - serializedVersion: 3
      time: 0.11111111
      value: 0.1573861
      inSlope: 2.6653666
      outSlope: 2.5935469
      tangentMode: 0
      weightedMode: 3
      inWeight: 0.33333334
      outWeight: 0.33333334
    - serializedVersion: 3
      time: 0.13333334
      value: 0.20061187
      inSlope: 2.5935469
      outSlope: 2.3740985
      tangentMode: 0
      weightedMode: 3
      inWeight: 0.33333334
      outWeight: 0.33333334
    - serializedVersion: 3
      time: 0.15555556
      value: 0.24018018
      inSlope: 2.3740985
      outSlope: 2.0208201
      tangentMode: 0
      weightedMode: 3
      inWeight: 0.33333334
      outWeight: 0.33333334
    - serializedVersion: 3
      time: 0.17777778
      value: 0.27386054
      inSlope: 2.0208201
      outSlope: 1.5173454
      tangentMode: 0
      weightedMode: 3
      inWeight: 0.33333334
      outWeight: 0.33333334
    - serializedVersion: 3
      time: 0.2
      value: 0.29914963
      inSlope: 1.5173454
      outSlope: 0.83953863
      tangentMode: 0
      weightedMode: 3
      inWeight: 0.33333334
      outWeight: 0.33333334
    - serializedVersion: 3
      time: 0.22222222
      value: 0.31314194
      inSlope: 0.83953863
      outSlope: 0.7751531
      tangentMode: 0
      weightedMode: 3
      inWeight: 0.33333334
      outWeight: 0.33333334
    - serializedVersion: 3
      time: 0.24444444
      value: 0.32606116
      inSlope: 0.7751531
      outSlope: 0.67533916
      tangentMode: 0
      weightedMode: 3
      inWeight: 0.33333334
      outWeight: 0.33333334
    - serializedVersion: 3
      time: 0.26666668
      value: 0.3373168
      inSlope: 0.67533916
      outSlope: 1.0245163
      tangentMode: 0
      weightedMode: 3
      inWeight: 0.33333334
      outWeight: 0.33333334
    - serializedVersion: 3
      time: 0.2888889
      value: 0.35439208
      inSlope: 1.0245163
      outSlope: 1.0004265
      tangentMode: 0
      weightedMode: 3
      inWeight: 0.33333334
      outWeight: 0.33333334
    - serializedVersion: 3
      time: 0.31111112
      value: 0.37106586
      inSlope: 1.0004265
      outSlope: 0.5380226
      tangentMode: 0
      weightedMode: 3
      inWeight: 0.33333334
      outWeight: 0.33333334
    - serializedVersion: 3
      time: 0.33333334
      value: 0.3800329
      inSlope: 0.5380226
      outSlope: 0.3682527
      tangentMode: 0
      weightedMode: 3
      inWeight: 0.33333334
      outWeight: 0.33333334
    - serializedVersion: 3
      time: 0.35555556
      value: 0.38617045
      inSlope: 0.3682527
      outSlope: 0.47250196
      tangentMode: 0
      weightedMode: 3
      inWeight: 0.33333334
      outWeight: 0.33333334
    - serializedVersion: 3
      time: 0.37777779
      value: 0.39404547
      inSlope: 0.47250196
      outSlope: 0.40051427
      tangentMode: 0
      weightedMode: 3
      inWeight: 0.33333334
      outWeight: 0.33333334
    - serializedVersion: 3
      time: 0.4
      value: 0.40072072
      inSlope: 0.40051427
      outSlope: 0.3235373
      tangentMode: 0
      weightedMode: 3
      inWeight: 0.33333334
      outWeight: 0.33333334
    - serializedVersion: 3
      time: 0.42222223
      value: 0.406113
      inSlope: 0.3235373
      outSlope: 0.36810428
      tangentMode: 0
      weightedMode: 3
      inWeight: 0.33333334
      outWeight: 0.33333334
    - serializedVersion: 3
      time: 0.44444445
      value: 0.41224808
      inSlope: 0.36810428
      outSlope: 0.5326908
      tangentMode: 0
      weightedMode: 3
      inWeight: 0.33333334
      outWeight: 0.33333334
    - serializedVersion: 3
      time: 0.46666667
      value: 0.42112625
      inSlope: 0.5326908
      outSlope: 0.8693712
      tangentMode: 0
      weightedMode: 3
      inWeight: 0.33333334
      outWeight: 0.33333334
    - serializedVersion: 3
      time: 0.4888889
      value: 0.43561578
      inSlope: 0.8693712
      outSlope: 1.1421858
      tangentMode: 0
      weightedMode: 3
      inWeight: 0.33333334
      outWeight: 0.33333334
    - serializedVersion: 3
      time: 0.5111111
      value: 0.4546522
      inSlope: 1.1421858
      outSlope: 1.3481541
      tangentMode: 0
      weightedMode: 3
      inWeight: 0.33333334
      outWeight: 0.33333334
    - serializedVersion: 3
      time: 0.53333336
      value: 0.47712144
      inSlope: 1.3481541
      outSlope: 1.4881268
      tangentMode: 0
      weightedMode: 3
      inWeight: 0.33333334
      outWeight: 0.33333334
    - serializedVersion: 3
      time: 0.5555555
      value: 0.5019235
      inSlope: 1.4881268
      outSlope: 1.5649693
      tangentMode: 0
      weightedMode: 3
      inWeight: 0.33333334
      outWeight: 0.33333334
    - serializedVersion: 3
      time: 0.5777778
      value: 0.5280064
      inSlope: 1.5649693
      outSlope: 1.5828089
      tangentMode: 0
      weightedMode: 3
      inWeight: 0.33333334
      outWeight: 0.33333334
    - serializedVersion: 3
      time: 0.59999996
      value: 0.5543865
      inSlope: 1.5828089
      outSlope: 1.5454303
      tangentMode: 0
      weightedMode: 3
      inWeight: 0.33333334
      outWeight: 0.33333334
    - serializedVersion: 3
      time: 0.62222224
      value: 0.5801437
      inSlope: 1.5454303
      outSlope: 1.4560905
      tangentMode: 0
      weightedMode: 3
      inWeight: 0.33333334
      outWeight: 0.33333334
    - serializedVersion: 3
      time: 0.6444444
      value: 0.60441184
      inSlope: 1.4560905
      outSlope: 1.3165559
      tangentMode: 0
      weightedMode: 3
      inWeight: 0.33333334
      outWeight: 0.33333334
    - serializedVersion: 3
      time: 0.6666667
      value: 0.62635446
      inSlope: 1.3165559
      outSlope: 1.1264609
      tangentMode: 0
      weightedMode: 3
      inWeight: 0.33333334
      outWeight: 0.33333334
    - serializedVersion: 3
      time: 0.68888885
      value: 0.6451288
      inSlope: 1.1264609
      outSlope: 0.8835924
      tangentMode: 0
      weightedMode: 3
      inWeight: 0.33333334
      outWeight: 0.33333334
    - serializedVersion: 3
      time: 0.7111111
      value: 0.65985537
      inSlope: 0.8835924
      outSlope: 0.7266898
      tangentMode: 0
      weightedMode: 3
      inWeight: 0.33333334
      outWeight: 0.33333334
    - serializedVersion: 3
      time: 0.73333335
      value: 0.67196685
      inSlope: 0.7266898
      outSlope: 0.6905944
      tangentMode: 0
      weightedMode: 3
      inWeight: 0.33333334
      outWeight: 0.33333334
    - serializedVersion: 3
      time: 0.75555557
      value: 0.68347675
      inSlope: 0.6905944
      outSlope: 0.65051496
      tangentMode: 0
      weightedMode: 3
      inWeight: 0.33333334
      outWeight: 0.33333334
    - serializedVersion: 3
      time: 0.77777773
      value: 0.69431865
      inSlope: 0.65051496
      outSlope: 0.60644585
      tangentMode: 0
      weightedMode: 3
      inWeight: 0.33333334
      outWeight: 0.33333334
    - serializedVersion: 3
      time: 0.8
      value: 0.7044261
      inSlope: 0.60644585
      outSlope: 0.55849725
      tangentMode: 0
      weightedMode: 3
      inWeight: 0.33333334
      outWeight: 0.33333334
    - serializedVersion: 3
      time: 0.82222223
      value: 0.7137344
      inSlope: 0.55849725
      outSlope: 0.5068128
      tangentMode: 0
      weightedMode: 3
      inWeight: 0.33333334
      outWeight: 0.33333334
    - serializedVersion: 3
      time: 0.84444445
      value: 0.72218126
      inSlope: 0.5068128
      outSlope: 0.45136255
      tangentMode: 0
      weightedMode: 3
      inWeight: 0.33333334
      outWeight: 0.33333334
    - serializedVersion: 3
      time: 0.8666666
      value: 0.72970396
      inSlope: 0.45136255
      outSlope: 0.39220586
      tangentMode: 0
      weightedMode: 3
      inWeight: 0.33333334
      outWeight: 0.33333334
    - serializedVersion: 3
      time: 0.8888889
      value: 0.73624074
      inSlope: 0.39220586
      outSlope: 0.32936487
      tangentMode: 0
      weightedMode: 3
      inWeight: 0.33333334
      outWeight: 0.33333334
    - serializedVersion: 3
      time: 0.9111111
      value: 0.74173015
      inSlope: 0.32936487
      outSlope: 0.26278162
      tangentMode: 0
      weightedMode: 3
      inWeight: 0.33333334
      outWeight: 0.33333334
    - serializedVersion: 3
      time: 0.93333334
      value: 0.74610984
      inSlope: 0.26278162
      outSlope: 0.19247192
      tangentMode: 0
      weightedMode: 3
      inWeight: 0.33333334
      outWeight: 0.33333334
    - serializedVersion: 3
      time: 0.9555555
      value: 0.7493177
      inSlope: 0.19247192
      outSlope: 0.11832802
      tangentMode: 0
      weightedMode: 3
      inWeight: 0.33333334
      outWeight: 0.33333334
    - serializedVersion: 3
      time: 0.9777778
      value: 0.75128984
      inSlope: 0.11832802
      outSlope: 0.040319003
      tangentMode: 0
      weightedMode: 3
      inWeight: 0.33333334
      outWeight: 0.33333334
    - serializedVersion: 3
      time: 1
      value: 0.7519618
      inSlope: 0.040319003
      outSlope: 0.040319003
      tangentMode: 0
      weightedMode: 3
      inWeight: 0.33333334
      outWeight: 0.33333334
    m_PreInfinity: 2
    m_PostInfinity: 2
    m_RotationOrder: 4
  movementVertical:
    serializedVersion: 2
    m_Curve:
    - serializedVersion: 3
      time: 0
      value: 0
      inSlope: 0.35202023
      outSlope: 0.35202023
      tangentMode: 0
      weightedMode: 3
      inWeight: 0.33333334
      outWeight: 0.33333334
    - serializedVersion: 3
      time: 0.022222223
      value: 0.0058670044
      inSlope: 0.35202023
      outSlope: 0.9395563
      tangentMode: 0
      weightedMode: 3
      inWeight: 0.33333334
      outWeight: 0.33333334
    - serializedVersion: 3
      time: 0.044444446
      value: 0.021526277
      inSlope: 0.9395563
      outSlope: 1.3369955
      tangentMode: 0
      weightedMode: 3
      inWeight: 0.33333334
      outWeight: 0.33333334
    - serializedVersion: 3
      time: 0.06666667
      value: 0.043809533
      inSlope: 1.3369955
      outSlope: 1.5494046
      tangentMode: 0
      weightedMode: 3
      inWeight: 0.33333334
      outWeight: 0.33333334
    - serializedVersion: 3
      time: 0.08888889
      value: 0.06963295
      inSlope: 1.5494046
      outSlope: 1.6056849
      tangentMode: 0
      weightedMode: 3
      inWeight: 0.33333334
      outWeight: 0.33333334
    - serializedVersion: 3
      time: 0.11111111
      value: 0.09639436
      inSlope: 1.6056849
      outSlope: 1.5386547
      tangentMode: 0
      weightedMode: 3
      inWeight: 0.33333334
      outWeight: 0.33333334
    - serializedVersion: 3
      time: 0.13333334
      value: 0.1220386
      inSlope: 1.5386547
      outSlope: 1.3616647
      tangentMode: 0
      weightedMode: 3
      inWeight: 0.33333334
      outWeight: 0.33333334
    - serializedVersion: 3
      time: 0.15555556
      value: 0.14473301
      inSlope: 1.3616647
      outSlope: 1.078598
      tangentMode: 0
      weightedMode: 3
      inWeight: 0.33333334
      outWeight: 0.33333334
    - serializedVersion: 3
      time: 0.17777778
      value: 0.16270965
      inSlope: 1.078598
      outSlope: 0.70495254
      tangentMode: 0
      weightedMode: 3
      inWeight: 0.33333334
      outWeight: 0.33333334
    - serializedVersion: 3
      time: 0.2
      value: 0.17445886
      inSlope: 0.70495254
      outSlope: 0.26121143
      tangentMode: 0
      weightedMode: 3
      inWeight: 0.33333334
      outWeight: 0.33333334
    - serializedVersion: 3
      time: 0.22222222
      value: 0.17881238
      inSlope: 0.26121143
      outSlope: 0.2213216
      tangentMode: 0
      weightedMode: 3
      inWeight: 0.33333334
      outWeight: 0.33333334
    - serializedVersion: 3
      time: 0.24444444
      value: 0.18250108
      inSlope: 0.2213216
      outSlope: -0.5736566
      tangentMode: 0
      weightedMode: 3
      inWeight: 0.33333334
      outWeight: 0.33333334
    - serializedVersion: 3
      time: 0.26666668
      value: 0.17294014
      inSlope: -0.5736566
      outSlope: -1.1323465
      tangentMode: 0
      weightedMode: 3
      inWeight: 0.33333334
      outWeight: 0.33333334
    - serializedVersion: 3
      time: 0.2888889
      value: 0.1540677
      inSlope: -1.1323465
      outSlope: -0.64078337
      tangentMode: 0
      weightedMode: 3
      inWeight: 0.33333334
      outWeight: 0.33333334
    - serializedVersion: 3
      time: 0.31111112
      value: 0.14338797
      inSlope: -0.64078337
      outSlope: -0.12240172
      tangentMode: 0
      weightedMode: 3
      inWeight: 0.33333334
      outWeight: 0.33333334
    - serializedVersion: 3
      time: 0.33333334
      value: 0.14134794
      inSlope: -0.12240172
      outSlope: 0.09469978
      tangentMode: 0
      weightedMode: 3
      inWeight: 0.33333334
      outWeight: 0.33333334
    - serializedVersion: 3
      time: 0.35555556
      value: 0.14292628
      inSlope: 0.09469978
      outSlope: 0.10844003
      tangentMode: 0
      weightedMode: 3
      inWeight: 0.33333334
      outWeight: 0.33333334
    - serializedVersion: 3
      time: 0.37777779
      value: 0.14473361
      inSlope: 0.10844003
      outSlope: 0.09154908
      tangentMode: 0
      weightedMode: 3
      inWeight: 0.33333334
      outWeight: 0.33333334
    - serializedVersion: 3
      time: 0.4
      value: 0.14625943
      inSlope: 0.09154908
      outSlope: 0.06359702
      tangentMode: 0
      weightedMode: 3
      inWeight: 0.33333334
      outWeight: 0.33333334
    - serializedVersion: 3
      time: 0.42222223
      value: 0.14731938
      inSlope: 0.06359702
      outSlope: 0.027104594
      tangentMode: 0
      weightedMode: 3
      inWeight: 0.33333334
      outWeight: 0.33333334
    - serializedVersion: 3
      time: 0.44444445
      value: 0.14777112
      inSlope: 0.027104594
      outSlope: -0.10208855
      tangentMode: 0
      weightedMode: 3
      inWeight: 0.33333334
      outWeight: 0.33333334
    - serializedVersion: 3
      time: 0.46666667
      value: 0.14606965
      inSlope: -0.10208855
      outSlope: -0.25447705
      tangentMode: 0
      weightedMode: 3
      inWeight: 0.33333334
      outWeight: 0.33333334
    - serializedVersion: 3
      time: 0.4888889
      value: 0.14182836
      inSlope: -0.25447705
      outSlope: -0.37434375
      tangentMode: 0
      weightedMode: 3
      inWeight: 0.33333334
      outWeight: 0.33333334
    - serializedVersion: 3
      time: 0.5111111
      value: 0.1355893
      inSlope: -0.37434375
      outSlope: -0.4601737
      tangentMode: 0
      weightedMode: 3
      inWeight: 0.33333334
      outWeight: 0.33333334
    - serializedVersion: 3
      time: 0.53333336
      value: 0.12791973
      inSlope: -0.4601737
      outSlope: -0.5151491
      tangentMode: 0
      weightedMode: 3
      inWeight: 0.33333334
      outWeight: 0.33333334
    - serializedVersion: 3
      time: 0.5555555
      value: 0.11933392
      inSlope: -0.5151491
      outSlope: -0.54197025
      tangentMode: 0
      weightedMode: 3
      inWeight: 0.33333334
      outWeight: 0.33333334
    - serializedVersion: 3
      time: 0.5777778
      value: 0.11030108
      inSlope: -0.54197025
      outSlope: -0.5444711
      tangentMode: 0
      weightedMode: 3
      inWeight: 0.33333334
      outWeight: 0.33333334
    - serializedVersion: 3
      time: 0.59999996
      value: 0.10122657
      inSlope: -0.5444711
      outSlope: -0.5238529
      tangentMode: 0
      weightedMode: 3
      inWeight: 0.33333334
      outWeight: 0.33333334
    - serializedVersion: 3
      time: 0.62222224
      value: 0.09249568
      inSlope: -0.5238529
      outSlope: -0.47909304
      tangentMode: 0
      weightedMode: 3
      inWeight: 0.33333334
      outWeight: 0.33333334
    - serializedVersion: 3
      time: 0.6444444
      value: 0.0845108
      inSlope: -0.47909304
      outSlope: -0.40779558
      tangentMode: 0
      weightedMode: 3
      inWeight: 0.33333334
      outWeight: 0.33333334
    - serializedVersion: 3
      time: 0.6666667
      value: 0.077714205
      inSlope: -0.40779558
      outSlope: -0.30769616
      tangentMode: 0
      weightedMode: 3
      inWeight: 0.33333334
      outWeight: 0.33333334
    - serializedVersion: 3
      time: 0.68888885
      value: 0.07258594
      inSlope: -0.30769616
      outSlope: -0.1788099
      tangentMode: 0
      weightedMode: 3
      inWeight: 0.33333334
      outWeight: 0.33333334
    - serializedVersion: 3
      time: 0.7111111
      value: 0.06960577
      inSlope: -0.1788099
      outSlope: -0.10394464
      tangentMode: 0
      weightedMode: 3
      inWeight: 0.33333334
      outWeight: 0.33333334
    - serializedVersion: 3
      time: 0.73333335
      value: 0.06787336
      inSlope: -0.10394464
      outSlope: -0.10020385
      tangentMode: 0
      weightedMode: 3
      inWeight: 0.33333334
      outWeight: 0.33333334
    - serializedVersion: 3
      time: 0.75555557
      value: 0.066203296
      inSlope: -0.10020385
      outSlope: -0.09606251
      tangentMode: 0
      weightedMode: 3
      inWeight: 0.33333334
      outWeight: 0.33333334
    - serializedVersion: 3
      time: 0.77777773
      value: 0.064602256
      inSlope: -0.09606251
      outSlope: -0.09076929
      tangentMode: 0
      weightedMode: 3
      inWeight: 0.33333334
      outWeight: 0.33333334
    - serializedVersion: 3
      time: 0.8
      value: 0.06308943
      inSlope: -0.09076929
      outSlope: -0.08457192
      tangentMode: 0
      weightedMode: 3
      inWeight: 0.33333334
      outWeight: 0.33333334
    - serializedVersion: 3
      time: 0.82222223
      value: 0.0616799
      inSlope: -0.08457192
      outSlope: -0.07744439
      tangentMode: 0
      weightedMode: 3
      inWeight: 0.33333334
      outWeight: 0.33333334
    - serializedVersion: 3
      time: 0.84444445
      value: 0.06038916
      inSlope: -0.07744439
      outSlope: -0.06946213
      tangentMode: 0
      weightedMode: 3
      inWeight: 0.33333334
      outWeight: 0.33333334
    - serializedVersion: 3
      time: 0.8666666
      value: 0.05923146
      inSlope: -0.06946213
      outSlope: -0.06066068
      tangentMode: 0
      weightedMode: 3
      inWeight: 0.33333334
      outWeight: 0.33333334
    - serializedVersion: 3
      time: 0.8888889
      value: 0.058220446
      inSlope: -0.06066068
      outSlope: -0.051033545
      tangentMode: 0
      weightedMode: 3
      inWeight: 0.33333334
      outWeight: 0.33333334
    - serializedVersion: 3
      time: 0.9111111
      value: 0.057369888
      inSlope: -0.051033545
      outSlope: -0.04076246
      tangentMode: 0
      weightedMode: 3
      inWeight: 0.33333334
      outWeight: 0.33333334
    - serializedVersion: 3
      time: 0.93333334
      value: 0.056690514
      inSlope: -0.04076246
      outSlope: -0.029776124
      tangentMode: 0
      weightedMode: 3
      inWeight: 0.33333334
      outWeight: 0.33333334
    - serializedVersion: 3
      time: 0.9555555
      value: 0.056194246
      inSlope: -0.029776124
      outSlope: -0.01826043
      tangentMode: 0
      weightedMode: 3
      inWeight: 0.33333334
      outWeight: 0.33333334
    - serializedVersion: 3
      time: 0.9777778
      value: 0.055889904
      inSlope: -0.01826043
      outSlope: -0.006186968
      tangentMode: 0
      weightedMode: 3
      inWeight: 0.33333334
      outWeight: 0.33333334
    - serializedVersion: 3
      time: 1
      value: 0.05578679
      inSlope: -0.006186968
      outSlope: -0.006186968
      tangentMode: 0
      weightedMode: 3
      inWeight: 0.33333334
      outWeight: 0.33333334
    m_PreInfinity: 2
    m_PostInfinity: 2
    m_RotationOrder: 4
  gravityInfluence: 1
  movementMultiplier: 1
  soundEffect: {fileID: 0}
  hitPause: 0
  hitPauseAmount: 0.05
  hitPauseDuration: 0.05
  isAttack: 0
  isBlockable: 1
  pushForce: 0
  poiseDamage: 2
  defenseDamage: 1
  interruptible: 0
  vulnerability: 0
  posture: 1
  attackPhase:
    serializedVersion: 2
    m_Curve:
    - serializedVersion: 3
      time: 0
      value: 0
      inSlope: Infinity
      outSlope: Infinity
      tangentMode: 103
      weightedMode: 0
      inWeight: 0
      outWeight: 0
    - serializedVersion: 3
      time: 0.07531209
      value: 1
      inSlope: Infinity
      outSlope: Infinity
      tangentMode: 103
      weightedMode: 0
      inWeight: 0
      outWeight: 0
    - serializedVersion: 3
      time: 0.5265232
      value: 2
      inSlope: Infinity
      outSlope: Infinity
      tangentMode: 103
      weightedMode: 0
      inWeight: 0
      outWeight: 0
    - serializedVersion: 3
      time: 0.5833333
      value: 2
      inSlope: Infinity
      outSlope: Infinity
      tangentMode: 103
      weightedMode: 0
      inWeight: 0
      outWeight: 0
    m_PreInfinity: 2
    m_PostInfinity: 2
    m_RotationOrder: 4
  actionsOnExecute: {fileID: 5646123999510126093, guid: 78b6a4b912d794adfaa39ced8b0cbd03,
    type: 3}
  actionsOnHit: {fileID: 1105617762997521274, guid: 8d7735084e5a549cdb0e80e39281a2a5,
    type: 3}
