%YAML 1.1
%TAG !u! tag:unity3d.com,2011:
--- !u!114 &11400000
MonoBehaviour:
  m_ObjectHideFlags: 0
  m_CorrespondingSourceObject: {fileID: 0}
  m_PrefabInstance: {fileID: 0}
  m_PrefabAsset: {fileID: 0}
  m_GameObject: {fileID: 0}
  m_Enabled: 1
  m_EditorHideFlags: 0
  m_Script: {fileID: 11500000, guid: af074dba030af45af95ab60f307eb78c, type: 3}
  m_Name: MyAttack1
  m_EditorClassIdentifier: 
  affectedBones: 
  animationClip: {fileID: 74269655016701256, guid: 9f915830337e8493a9e6a6e38b34cd79, type: 2}
  avatarMask: {fileID: 0}
  transitionIn: 0.1
  transitionOut: 0.15
  movementForward:
    serializedVersion: 2
    m_Curve:
    - serializedVersion: 3
      time: 0
      value: 0
      inSlope: -0.16850519
      outSlope: -0.16850519
      tangentMode: 0
      weightedMode: 3
      inWeight: 0.33333334
      outWeight: 0.33333334
    - serializedVersion: 3
      time: 0.016666668
      value: -0.00280842
      inSlope: -0.16850519
      outSlope: -0.4450383
      tangentMode: 0
      weightedMode: 3
      inWeight: 0.33333334
      outWeight: 0.33333334
    - serializedVersion: 3
      time: 0.033333335
      value: -0.010225725
      inSlope: -0.4450383
      outSlope: -0.6699836
      tangentMode: 0
      weightedMode: 3
      inWeight: 0.33333334
      outWeight: 0.33333334
    - serializedVersion: 3
      time: 0.05
      value: -0.021392118
      inSlope: -0.6699836
      outSlope: -0.8425927
      tangentMode: 0
      weightedMode: 3
      inWeight: 0.33333334
      outWeight: 0.33333334
    - serializedVersion: 3
      time: 0.06666667
      value: -0.035435334
      inSlope: -0.8425927
      outSlope: -0.9612119
      tangentMode: 0
      weightedMode: 3
      inWeight: 0.33333334
      outWeight: 0.33333334
    - serializedVersion: 3
      time: 0.083333336
      value: -0.05145553
      inSlope: -0.9612119
      outSlope: -1.0218357
      tangentMode: 0
      weightedMode: 3
      inWeight: 0.33333334
      outWeight: 0.33333334
    - serializedVersion: 3
      time: 0.1
      value: -0.068486124
      inSlope: -1.0218357
      outSlope: -1.0203577
      tangentMode: 0
      weightedMode: 3
      inWeight: 0.33333334
      outWeight: 0.33333334
    - serializedVersion: 3
      time: 0.11666667
      value: -0.08549209
      inSlope: -1.0203577
      outSlope: -0.95287496
      tangentMode: 0
      weightedMode: 3
      inWeight: 0.33333334
      outWeight: 0.33333334
    - serializedVersion: 3
      time: 0.13333334
      value: -0.101373345
      inSlope: -0.95287496
      outSlope: -0.8163022
      tangentMode: 0
      weightedMode: 3
      inWeight: 0.33333334
      outWeight: 0.33333334
    - serializedVersion: 3
      time: 0.15
      value: -0.11497837
      inSlope: -0.8163022
      outSlope: -0.6087636
      tangentMode: 0
      weightedMode: 3
      inWeight: 0.33333334
      outWeight: 0.33333334
    - serializedVersion: 3
      time: 0.16666667
      value: -0.12512444
      inSlope: -0.6087636
      outSlope: -0.429415
      tangentMode: 0
      weightedMode: 3
      inWeight: 0.33333334
      outWeight: 0.33333334
    - serializedVersion: 3
      time: 0.18333334
      value: -0.13228135
      inSlope: -0.429415
      outSlope: -0.38210574
      tangentMode: 0
      weightedMode: 3
      inWeight: 0.33333334
      outWeight: 0.33333334
    - serializedVersion: 3
      time: 0.2
      value: -0.13864978
      inSlope: -0.38210574
      outSlope: -0.33702272
      tangentMode: 0
      weightedMode: 3
      inWeight: 0.33333334
      outWeight: 0.33333334
    - serializedVersion: 3
      time: 0.21666667
      value: -0.14426683
      inSlope: -0.33702272
      outSlope: -0.2942683
      tangentMode: 0
      weightedMode: 3
      inWeight: 0.33333334
      outWeight: 0.33333334
    - serializedVersion: 3
      time: 0.23333333
      value: -0.1491713
      inSlope: -0.2942683
      outSlope: -0.25345448
      tangentMode: 0
      weightedMode: 3
      inWeight: 0.33333334
      outWeight: 0.33333334
    - serializedVersion: 3
      time: 0.25
      value: -0.15339553
      inSlope: -0.25345448
      outSlope: -0.21413577
      tangentMode: 0
      weightedMode: 3
      inWeight: 0.33333334
      outWeight: 0.33333334
    - serializedVersion: 3
      time: 0.26666668
      value: -0.15696447
      inSlope: -0.21413577
      outSlope: -0.17601298
      tangentMode: 0
      weightedMode: 3
      inWeight: 0.33333334
      outWeight: 0.33333334
    - serializedVersion: 3
      time: 0.28333333
      value: -0.15989801
      inSlope: -0.17601298
      outSlope: -0.13902771
      tangentMode: 0
      weightedMode: 3
      inWeight: 0.33333334
      outWeight: 0.33333334
    - serializedVersion: 3
      time: 0.3
      value: -0.16221514
      inSlope: -0.13902771
      outSlope: -0.103638865
      tangentMode: 0
      weightedMode: 3
      inWeight: 0.33333334
      outWeight: 0.33333334
    - serializedVersion: 3
      time: 0.31666666
      value: -0.16394246
      inSlope: -0.103638865
      outSlope: -0.070576906
      tangentMode: 0
      weightedMode: 3
      inWeight: 0.33333334
      outWeight: 0.33333334
    - serializedVersion: 3
      time: 0.33333334
      value: -0.16511874
      inSlope: -0.070576906
      outSlope: 3.2163136
      tangentMode: 0
      weightedMode: 3
      inWeight: 0.33333334
      outWeight: 0.33333334
    - serializedVersion: 3
      time: 0.35
      value: -0.11151357
      inSlope: 3.2163136
      outSlope: 7.5047503
      tangentMode: 0
      weightedMode: 3
      inWeight: 0.33333334
      outWeight: 0.33333334
    - serializedVersion: 3
      time: 0.36666667
      value: 0.013565704
      inSlope: 7.5047503
      outSlope: 9.973948
      tangentMode: 0
      weightedMode: 3
      inWeight: 0.33333334
      outWeight: 0.33333334
    - serializedVersion: 3
      time: 0.38333333
      value: 0.179798
      inSlope: 9.973948
      outSlope: 10.179044
      tangentMode: 0
      weightedMode: 3
      inWeight: 0.33333334
      outWeight: 0.33333334
    - serializedVersion: 3
      time: 0.4
      value: 0.34944886
      inSlope: 10.179044
      outSlope: 7.5936522
      tangentMode: 0
      weightedMode: 3
      inWeight: 0.33333334
      outWeight: 0.33333334
    - serializedVersion: 3
      time: 0.41666666
      value: 0.4760096
      inSlope: 7.5936522
      outSlope: 6.3637824
      tangentMode: 0
      weightedMode: 3
      inWeight: 0.33333334
      outWeight: 0.33333334
    - serializedVersion: 3
      time: 0.43333334
      value: 0.58207273
      inSlope: 6.3637824
      outSlope: 6.200093
      tangentMode: 0
      weightedMode: 3
      inWeight: 0.33333334
      outWeight: 0.33333334
    - serializedVersion: 3
      time: 0.45
      value: 0.6854075
      inSlope: 6.200093
      outSlope: 5.488217
      tangentMode: 0
      weightedMode: 3
      inWeight: 0.33333334
      outWeight: 0.33333334
    - serializedVersion: 3
      time: 0.46666667
      value: 0.7768779
      inSlope: 5.488217
      outSlope: 4.8588443
      tangentMode: 0
      weightedMode: 3
      inWeight: 0.33333334
      outWeight: 0.33333334
    - serializedVersion: 3
      time: 0.48333332
      value: 0.85785854
      inSlope: 4.8588443
      outSlope: 3.9983907
      tangentMode: 0
      weightedMode: 3
      inWeight: 0.33333334
      outWeight: 0.33333334
    - serializedVersion: 3
      time: 0.5
      value: 0.92449844
      inSlope: 3.9983907
      outSlope: 3.107274
      tangentMode: 0
      weightedMode: 3
      inWeight: 0.33333334
      outWeight: 0.33333334
    - serializedVersion: 3
      time: 0.51666665
      value: 0.9762863
      inSlope: 3.107274
      outSlope: 2.269615
      tangentMode: 0
      weightedMode: 3
      inWeight: 0.33333334
      outWeight: 0.33333334
    - serializedVersion: 3
      time: 0.53333336
      value: 1.0141133
      inSlope: 2.269615
      outSlope: 1.5225306
      tangentMode: 0
      weightedMode: 3
      inWeight: 0.33333334
      outWeight: 0.33333334
    - serializedVersion: 3
      time: 0.55
      value: 1.0394888
      inSlope: 1.5225306
      outSlope: 0.8639368
      tangentMode: 0
      weightedMode: 3
      inWeight: 0.33333334
      outWeight: 0.33333334
    - serializedVersion: 3
      time: 0.56666666
      value: 1.0538877
      inSlope: 0.8639368
      outSlope: 0.2509048
      tangentMode: 0
      weightedMode: 3
      inWeight: 0.33333334
      outWeight: 0.33333334
    - serializedVersion: 3
      time: 0.5833333
      value: 1.0580695
      inSlope: 0.2509048
      outSlope: -0.006387217
      tangentMode: 0
      weightedMode: 3
      inWeight: 0.33333334
      outWeight: 0.33333334
    - serializedVersion: 3
      time: 0.6
      value: 1.057963
      inSlope: -0.006387217
      outSlope: -0.006558901
      tangentMode: 0
      weightedMode: 3
      inWeight: 0.33333334
      outWeight: 0.33333334
    - serializedVersion: 3
      time: 0.6166667
      value: 1.0578537
      inSlope: -0.006558901
      outSlope: -0.006616122
      tangentMode: 0
      weightedMode: 3
      inWeight: 0.33333334
      outWeight: 0.33333334
    - serializedVersion: 3
      time: 0.6333333
      value: 1.0577434
      inSlope: -0.006616122
      outSlope: -0.00666619
      tangentMode: 0
      weightedMode: 3
      inWeight: 0.33333334
      outWeight: 0.33333334
    - serializedVersion: 3
      time: 0.65
      value: 1.0576323
      inSlope: -0.00666619
      outSlope: -0.006637556
      tangentMode: 0
      weightedMode: 3
      inWeight: 0.33333334
      outWeight: 0.33333334
    - serializedVersion: 3
      time: 0.6666667
      value: 1.0575217
      inSlope: -0.006637556
      outSlope: -0.0065732063
      tangentMode: 0
      weightedMode: 3
      inWeight: 0.33333334
      outWeight: 0.33333334
    - serializedVersion: 3
      time: 0.68333334
      value: 1.0574121
      inSlope: -0.0065732063
      outSlope: -0.006465918
      tangentMode: 0
      weightedMode: 3
      inWeight: 0.33333334
      outWeight: 0.33333334
    - serializedVersion: 3
      time: 0.7
      value: 1.0573044
      inSlope: -0.006465918
      outSlope: -0.0064230026
      tangentMode: 0
      weightedMode: 3
      inWeight: 0.33333334
      outWeight: 0.33333334
    - serializedVersion: 3
      time: 0.71666664
      value: 1.0571973
      inSlope: -0.0064230026
      outSlope: -0.006043895
      tangentMode: 0
      weightedMode: 3
      inWeight: 0.33333334
      outWeight: 0.33333334
    - serializedVersion: 3
      time: 0.73333335
      value: 1.0570966
      inSlope: -0.006043895
      outSlope: -0.005743509
      tangentMode: 0
      weightedMode: 3
      inWeight: 0.33333334
      outWeight: 0.33333334
    - serializedVersion: 3
      time: 0.75
      value: 1.0570009
      inSlope: -0.005743509
      outSlope: -0.0053572706
      tangentMode: 0
      weightedMode: 3
      inWeight: 0.33333334
      outWeight: 0.33333334
    - serializedVersion: 3
      time: 0.76666665
      value: 1.0569116
      inSlope: -0.0053572706
      outSlope: -0.0048994888
      tangentMode: 0
      weightedMode: 3
      inWeight: 0.33333334
      outWeight: 0.33333334
    - serializedVersion: 3
      time: 0.78333336
      value: 1.0568299
      inSlope: -0.0048994888
      outSlope: -0.0043416065
      tangentMode: 0
      weightedMode: 3
      inWeight: 0.33333334
      outWeight: 0.33333334
    - serializedVersion: 3
      time: 0.8
      value: 1.0567576
      inSlope: -0.0043416065
      outSlope: -0.0036835705
      tangentMode: 0
      weightedMode: 3
      inWeight: 0.33333334
      outWeight: 0.33333334
    - serializedVersion: 3
      time: 0.81666666
      value: 1.0566962
      inSlope: -0.0036835705
      outSlope: -0.002903941
      tangentMode: 0
      weightedMode: 3
      inWeight: 0.33333334
      outWeight: 0.33333334
    - serializedVersion: 3
      time: 0.8333333
      value: 1.0566478
      inSlope: -0.002903941
      outSlope: -0.0020241684
      tangentMode: 0
      weightedMode: 3
      inWeight: 0.33333334
      outWeight: 0.33333334
    - serializedVersion: 3
      time: 0.85
      value: 1.056614
      inSlope: -0.0020241684
      outSlope: -0.0010228166
      tangentMode: 0
      weightedMode: 3
      inWeight: 0.33333334
      outWeight: 0.33333334
    - serializedVersion: 3
      time: 0.8666667
      value: 1.056597
      inSlope: -0.0010228166
      outSlope: 0.00010728846
      tangentMode: 0
      weightedMode: 3
      inWeight: 0.33333334
      outWeight: 0.33333334
    - serializedVersion: 3
      time: 0.8833333
      value: 1.0565988
      inSlope: 0.00010728846
      outSlope: 0.0013804449
      tangentMode: 0
      weightedMode: 3
      inWeight: 0.33333334
      outWeight: 0.33333334
    - serializedVersion: 3
      time: 0.9
      value: 1.0566218
      inSlope: 0.0013804449
      outSlope: 0.002803795
      tangentMode: 0
      weightedMode: 3
      inWeight: 0.33333334
      outWeight: 0.33333334
    - serializedVersion: 3
      time: 0.9166667
      value: 1.0566685
      inSlope: 0.002803795
      outSlope: 0.004384522
      tangentMode: 0
      weightedMode: 3
      inWeight: 0.33333334
      outWeight: 0.33333334
    - serializedVersion: 3
      time: 0.93333334
      value: 1.0567416
      inSlope: 0.004384522
      outSlope: 0.0061297477
      tangentMode: 0
      weightedMode: 3
      inWeight: 0.33333334
      outWeight: 0.33333334
    - serializedVersion: 3
      time: 0.95
      value: 1.0568438
      inSlope: 0.0061297477
      outSlope: 0.00806094
      tangentMode: 0
      weightedMode: 3
      inWeight: 0.33333334
      outWeight: 0.33333334
    - serializedVersion: 3
      time: 0.96666664
      value: 1.0569781
      inSlope: 0.00806094
      outSlope: 0.0102209775
      tangentMode: 0
      weightedMode: 3
      inWeight: 0.33333334
      outWeight: 0.33333334
    - serializedVersion: 3
      time: 0.98333335
      value: 1.0571485
      inSlope: 0.0102209775
      outSlope: 0.012588513
      tangentMode: 0
      weightedMode: 3
      inWeight: 0.33333334
      outWeight: 0.33333334
    - serializedVersion: 3
      time: 1
      value: 1.0573583
      inSlope: 0.012588513
      outSlope: 0.012588513
      tangentMode: 0
      weightedMode: 3
      inWeight: 0.33333334
      outWeight: 0.33333334
    m_PreInfinity: 2
    m_PostInfinity: 2
    m_RotationOrder: 4
  movementSides:
    serializedVersion: 2
    m_Curve:
    - serializedVersion: 3
      time: 0
      value: 0
      inSlope: 0.08059965
      outSlope: 0.08059965
      tangentMode: 0
      weightedMode: 3
      inWeight: 0.33333334
      outWeight: 0.33333334
    - serializedVersion: 3
      time: 0.016666668
      value: 0.0013433276
      inSlope: 0.08059965
      outSlope: 0.17187656
      tangentMode: 0
      weightedMode: 3
      inWeight: 0.33333334
      outWeight: 0.33333334
    - serializedVersion: 3
      time: 0.033333335
      value: 0.004207937
      inSlope: 0.17187656
      outSlope: 0.24328609
      tangentMode: 0
      weightedMode: 3
      inWeight: 0.33333334
      outWeight: 0.33333334
    - serializedVersion: 3
      time: 0.05
      value: 0.008262705
      inSlope: 0.24328609
      outSlope: 0.29233044
      tangentMode: 0
      weightedMode: 3
      inWeight: 0.33333334
      outWeight: 0.33333334
    - serializedVersion: 3
      time: 0.06666667
      value: 0.01313488
      inSlope: 0.29233044
      outSlope: 0.32222787
      tangentMode: 0
      weightedMode: 3
      inWeight: 0.33333334
      outWeight: 0.33333334
    - serializedVersion: 3
      time: 0.083333336
      value: 0.018505344
      inSlope: 0.32222787
      outSlope: 0.32931817
      tangentMode: 0
      weightedMode: 3
      inWeight: 0.33333334
      outWeight: 0.33333334
    - serializedVersion: 3
      time: 0.1
      value: 0.02399398
      inSlope: 0.32931817
      outSlope: 0.31652305
      tangentMode: 0
      weightedMode: 3
      inWeight: 0.33333334
      outWeight: 0.33333334
    - serializedVersion: 3
      time: 0.11666667
      value: 0.029269364
      inSlope: 0.31652305
      outSlope: 0.2879207
      tangentMode: 0
      weightedMode: 3
      inWeight: 0.33333334
      outWeight: 0.33333334
    - serializedVersion: 3
      time: 0.13333334
      value: 0.034068044
      inSlope: 0.2879207
      outSlope: 0.24282666
      tangentMode: 0
      weightedMode: 3
      inWeight: 0.33333334
      outWeight: 0.33333334
    - serializedVersion: 3
      time: 0.15
      value: 0.038115155
      inSlope: 0.24282666
      outSlope: 0.18764222
      tangentMode: 0
      weightedMode: 3
      inWeight: 0.33333334
      outWeight: 0.33333334
    - serializedVersion: 3
      time: 0.16666667
      value: 0.041242525
      inSlope: 0.18764222
      outSlope: 0.10705278
      tangentMode: 0
      weightedMode: 3
      inWeight: 0.33333334
      outWeight: 0.33333334
    - serializedVersion: 3
      time: 0.18333334
      value: 0.043026738
      inSlope: 0.10705278
      outSlope: 0.094235845
      tangentMode: 0
      weightedMode: 3
      inWeight: 0.33333334
      outWeight: 0.33333334
    - serializedVersion: 3
      time: 0.2
      value: 0.044597335
      inSlope: 0.094235845
      outSlope: 0.08444869
      tangentMode: 0
      weightedMode: 3
      inWeight: 0.33333334
      outWeight: 0.33333334
    - serializedVersion: 3
      time: 0.21666667
      value: 0.046004813
      inSlope: 0.08444869
      outSlope: 0.07803083
      tangentMode: 0
      weightedMode: 3
      inWeight: 0.33333334
      outWeight: 0.33333334
    - serializedVersion: 3
      time: 0.23333333
      value: 0.047305327
      inSlope: 0.07803083
      outSlope: 0.0750775
      tangentMode: 0
      weightedMode: 3
      inWeight: 0.33333334
      outWeight: 0.33333334
    - serializedVersion: 3
      time: 0.25
      value: 0.04855662
      inSlope: 0.0750775
      outSlope: 0.075558886
      tangentMode: 0
      weightedMode: 3
      inWeight: 0.33333334
      outWeight: 0.33333334
    - serializedVersion: 3
      time: 0.26666668
      value: 0.049815934
      inSlope: 0.075558886
      outSlope: 0.07892899
      tangentMode: 0
      weightedMode: 3
      inWeight: 0.33333334
      outWeight: 0.33333334
    - serializedVersion: 3
      time: 0.28333333
      value: 0.051131416
      inSlope: 0.07892899
      outSlope: 0.08443185
      tangentMode: 0
      weightedMode: 3
      inWeight: 0.33333334
      outWeight: 0.33333334
    - serializedVersion: 3
      time: 0.3
      value: 0.052538615
      inSlope: 0.08443185
      outSlope: 0.090801805
      tangentMode: 0
      weightedMode: 3
      inWeight: 0.33333334
      outWeight: 0.33333334
    - serializedVersion: 3
      time: 0.31666666
      value: 0.054051977
      inSlope: 0.090801805
      outSlope: 0.095980085
      tangentMode: 0
      weightedMode: 3
      inWeight: 0.33333334
      outWeight: 0.33333334
    - serializedVersion: 3
      time: 0.33333334
      value: 0.055651646
      inSlope: 0.095980085
      outSlope: -0.19937594
      tangentMode: 0
      weightedMode: 3
      inWeight: 0.33333334
      outWeight: 0.33333334
    - serializedVersion: 3
      time: 0.35
      value: 0.052328717
      inSlope: -0.19937594
      outSlope: -0.28390175
      tangentMode: 0
      weightedMode: 3
      inWeight: 0.33333334
      outWeight: 0.33333334
    - serializedVersion: 3
      time: 0.36666667
      value: 0.047597017
      inSlope: -0.28390175
      outSlope: -0.2437214
      tangentMode: 0
      weightedMode: 3
      inWeight: 0.33333334
      outWeight: 0.33333334
    - serializedVersion: 3
      time: 0.38333333
      value: 0.043534998
      inSlope: -0.2437214
      outSlope: -0.18249556
      tangentMode: 0
      weightedMode: 3
      inWeight: 0.33333334
      outWeight: 0.33333334
    - serializedVersion: 3
      time: 0.4
      value: 0.040493403
      inSlope: -0.18249556
      outSlope: -0.24536067
      tangentMode: 0
      weightedMode: 3
      inWeight: 0.33333334
      outWeight: 0.33333334
    - serializedVersion: 3
      time: 0.41666666
      value: 0.036404062
      inSlope: -0.24536067
      outSlope: -0.52298135
      tangentMode: 0
      weightedMode: 3
      inWeight: 0.33333334
      outWeight: 0.33333334
    - serializedVersion: 3
      time: 0.43333334
      value: 0.027687699
      inSlope: -0.52298135
      outSlope: -0.910451
      tangentMode: 0
      weightedMode: 3
      inWeight: 0.33333334
      outWeight: 0.33333334
    - serializedVersion: 3
      time: 0.45
      value: 0.0125135295
      inSlope: -0.910451
      outSlope: -1.180625
      tangentMode: 0
      weightedMode: 3
      inWeight: 0.33333334
      outWeight: 0.33333334
    - serializedVersion: 3
      time: 0.46666667
      value: -0.0071635693
      inSlope: -1.180625
      outSlope: -1.6391205
      tangentMode: 0
      weightedMode: 3
      inWeight: 0.33333334
      outWeight: 0.33333334
    - serializedVersion: 3
      time: 0.48333332
      value: -0.03448222
      inSlope: -1.6391205
      outSlope: -1.8554204
      tangentMode: 0
      weightedMode: 3
      inWeight: 0.33333334
      outWeight: 0.33333334
    - serializedVersion: 3
      time: 0.5
      value: -0.06540592
      inSlope: -1.8554204
      outSlope: -1.9384454
      tangentMode: 0
      weightedMode: 3
      inWeight: 0.33333334
      outWeight: 0.33333334
    - serializedVersion: 3
      time: 0.51666665
      value: -0.09771331
      inSlope: -1.9384454
      outSlope: -1.7986516
      tangentMode: 0
      weightedMode: 3
      inWeight: 0.33333334
      outWeight: 0.33333334
    - serializedVersion: 3
      time: 0.53333336
      value: -0.12769091
      inSlope: -1.7986516
      outSlope: -1.4315835
      tangentMode: 0
      weightedMode: 3
      inWeight: 0.33333334
      outWeight: 0.33333334
    - serializedVersion: 3
      time: 0.55
      value: -0.15155062
      inSlope: -1.4315835
      outSlope: -0.9419453
      tangentMode: 0
      weightedMode: 3
      inWeight: 0.33333334
      outWeight: 0.33333334
    - serializedVersion: 3
      time: 0.56666666
      value: -0.1672497
      inSlope: -0.9419453
      outSlope: -0.377608
      tangentMode: 0
      weightedMode: 3
      inWeight: 0.33333334
      outWeight: 0.33333334
    - serializedVersion: 3
      time: 0.5833333
      value: -0.17354316
      inSlope: -0.377608
      outSlope: -0.09382521
      tangentMode: 0
      weightedMode: 3
      inWeight: 0.33333334
      outWeight: 0.33333334
    - serializedVersion: 3
      time: 0.6
      value: -0.17510691
      inSlope: -0.09382521
      outSlope: -0.07867642
      tangentMode: 0
      weightedMode: 3
      inWeight: 0.33333334
      outWeight: 0.33333334
    - serializedVersion: 3
      time: 0.6166667
      value: -0.17641819
      inSlope: -0.07867642
      outSlope: -0.06510979
      tangentMode: 0
      weightedMode: 3
      inWeight: 0.33333334
      outWeight: 0.33333334
    - serializedVersion: 3
      time: 0.6333333
      value: -0.17750335
      inSlope: -0.06510979
      outSlope: -0.052865498
      tangentMode: 0
      weightedMode: 3
      inWeight: 0.33333334
      outWeight: 0.33333334
    - serializedVersion: 3
      time: 0.65
      value: -0.17838444
      inSlope: -0.052865498
      outSlope: -0.042022057
      tangentMode: 0
      weightedMode: 3
      inWeight: 0.33333334
      outWeight: 0.33333334
    - serializedVersion: 3
      time: 0.6666667
      value: -0.17908481
      inSlope: -0.042022057
      outSlope: -0.03248605
      tangentMode: 0
      weightedMode: 3
      inWeight: 0.33333334
      outWeight: 0.33333334
    - serializedVersion: 3
      time: 0.68333334
      value: -0.17962624
      inSlope: -0.03248605
      outSlope: -0.024228416
      tangentMode: 0
      weightedMode: 3
      inWeight: 0.33333334
      outWeight: 0.33333334
    - serializedVersion: 3
      time: 0.7
      value: -0.18003005
      inSlope: -0.024228416
      outSlope: -0.017312782
      tangentMode: 0
      weightedMode: 3
      inWeight: 0.33333334
      outWeight: 0.33333334
    - serializedVersion: 3
      time: 0.71666664
      value: -0.1803186
      inSlope: -0.017312782
      outSlope: -0.011348397
      tangentMode: 0
      weightedMode: 3
      inWeight: 0.33333334
      outWeight: 0.33333334
    - serializedVersion: 3
      time: 0.73333335
      value: -0.18050773
      inSlope: -0.011348397
      outSlope: -0.006707317
      tangentMode: 0
      weightedMode: 3
      inWeight: 0.33333334
      outWeight: 0.33333334
    - serializedVersion: 3
      time: 0.75
      value: -0.18061952
      inSlope: -0.006707317
      outSlope: -0.0032427937
      tangentMode: 0
      weightedMode: 3
      inWeight: 0.33333334
      outWeight: 0.33333334
    - serializedVersion: 3
      time: 0.76666665
      value: -0.18067357
      inSlope: -0.0032427937
      outSlope: -0.0009396648
      tangentMode: 0
      weightedMode: 3
      inWeight: 0.33333334
      outWeight: 0.33333334
    - serializedVersion: 3
      time: 0.78333336
      value: -0.18068923
      inSlope: -0.0009396648
      outSlope: 0.0001877548
      tangentMode: 0
      weightedMode: 3
      inWeight: 0.33333334
      outWeight: 0.33333334
    - serializedVersion: 3
      time: 0.8
      value: -0.1806861
      inSlope: 0.0001877548
      outSlope: 0.0001698734
      tangentMode: 0
      weightedMode: 3
      inWeight: 0.33333334
      outWeight: 0.33333334
    - serializedVersion: 3
      time: 0.81666666
      value: -0.18068327
      inSlope: 0.0001698734
      outSlope: -0.001028181
      tangentMode: 0
      weightedMode: 3
      inWeight: 0.33333334
      outWeight: 0.33333334
    - serializedVersion: 3
      time: 0.8333333
      value: -0.1807004
      inSlope: -0.001028181
      outSlope: -0.0033759982
      tangentMode: 0
      weightedMode: 3
      inWeight: 0.33333334
      outWeight: 0.33333334
    - serializedVersion: 3
      time: 0.85
      value: -0.18075667
      inSlope: -0.0033759982
      outSlope: -0.006882555
      tangentMode: 0
      weightedMode: 3
      inWeight: 0.33333334
      outWeight: 0.33333334
    - serializedVersion: 3
      time: 0.8666667
      value: -0.18087138
      inSlope: -0.006882555
      outSlope: -0.011531722
      tangentMode: 0
      weightedMode: 3
      inWeight: 0.33333334
      outWeight: 0.33333334
    - serializedVersion: 3
      time: 0.8833333
      value: -0.18106358
      inSlope: -0.011531722
      outSlope: -0.017320829
      tangentMode: 0
      weightedMode: 3
      inWeight: 0.33333334
      outWeight: 0.33333334
    - serializedVersion: 3
      time: 0.9
      value: -0.18135226
      inSlope: -0.017320829
      outSlope: -0.024217602
      tangentMode: 0
      weightedMode: 3
      inWeight: 0.33333334
      outWeight: 0.33333334
    - serializedVersion: 3
      time: 0.9166667
      value: -0.18175589
      inSlope: -0.024217602
      outSlope: -0.03219816
      tangentMode: 0
      weightedMode: 3
      inWeight: 0.33333334
      outWeight: 0.33333334
    - serializedVersion: 3
      time: 0.93333334
      value: -0.18229252
      inSlope: -0.03219816
      outSlope: -0.041230958
      tangentMode: 0
      weightedMode: 3
      inWeight: 0.33333334
      outWeight: 0.33333334
    - serializedVersion: 3
      time: 0.95
      value: -0.1829797
      inSlope: -0.041230958
      outSlope: -0.051259745
      tangentMode: 0
      weightedMode: 3
      inWeight: 0.33333334
      outWeight: 0.33333334
    - serializedVersion: 3
      time: 0.96666664
      value: -0.18383403
      inSlope: -0.051259745
      outSlope: -0.06221725
      tangentMode: 0
      weightedMode: 3
      inWeight: 0.33333334
      outWeight: 0.33333334
    - serializedVersion: 3
      time: 0.98333335
      value: -0.18487099
      inSlope: -0.06221725
      outSlope: -0.07402278
      tangentMode: 0
      weightedMode: 3
      inWeight: 0.33333334
      outWeight: 0.33333334
    - serializedVersion: 3
      time: 1
      value: -0.1861047
      inSlope: -0.07402278
      outSlope: -0.07402278
      tangentMode: 0
      weightedMode: 3
      inWeight: 0.33333334
      outWeight: 0.33333334
    m_PreInfinity: 2
    m_PostInfinity: 2
    m_RotationOrder: 4
  movementVertical:
    serializedVersion: 2
    m_Curve:
    - serializedVersion: 3
      time: 0
      value: 0
      inSlope: -0.08554458
      outSlope: -0.08554458
      tangentMode: 0
      weightedMode: 3
      inWeight: 0.33333334
      outWeight: 0.33333334
    - serializedVersion: 3
      time: 0.016666668
      value: -0.0014257431
      inSlope: -0.08554458
      outSlope: -0.2519381
      tangentMode: 0
      weightedMode: 3
      inWeight: 0.33333334
      outWeight: 0.33333334
    - serializedVersion: 3
      time: 0.033333335
      value: -0.0056247115
      inSlope: -0.2519381
      outSlope: -0.38807276
      tangentMode: 0
      weightedMode: 3
      inWeight: 0.33333334
      outWeight: 0.33333334
    - serializedVersion: 3
      time: 0.05
      value: -0.01209259
      inSlope: -0.38807276
      outSlope: -0.49489608
      tangentMode: 0
      weightedMode: 3
      inWeight: 0.33333334
      outWeight: 0.33333334
    - serializedVersion: 3
      time: 0.06666667
      value: -0.02034086
      inSlope: -0.49489608
      outSlope: -0.5713678
      tangentMode: 0
      weightedMode: 3
      inWeight: 0.33333334
      outWeight: 0.33333334
    - serializedVersion: 3
      time: 0.083333336
      value: -0.029863656
      inSlope: -0.5713678
      outSlope: -0.61548835
      tangentMode: 0
      weightedMode: 3
      inWeight: 0.33333334
      outWeight: 0.33333334
    - serializedVersion: 3
      time: 0.1
      value: -0.040121794
      inSlope: -0.61548835
      outSlope: -0.6249047
      tangentMode: 0
      weightedMode: 3
      inWeight: 0.33333334
      outWeight: 0.33333334
    - serializedVersion: 3
      time: 0.11666667
      value: -0.05053687
      inSlope: -0.6249047
      outSlope: -0.5969558
      tangentMode: 0
      weightedMode: 3
      inWeight: 0.33333334
      outWeight: 0.33333334
    - serializedVersion: 3
      time: 0.13333334
      value: -0.060486138
      inSlope: -0.5969558
      outSlope: -0.5274654
      tangentMode: 0
      weightedMode: 3
      inWeight: 0.33333334
      outWeight: 0.33333334
    - serializedVersion: 3
      time: 0.15
      value: -0.06927723
      inSlope: -0.5274654
      outSlope: -0.41451934
      tangentMode: 0
      weightedMode: 3
      inWeight: 0.33333334
      outWeight: 0.33333334
    - serializedVersion: 3
      time: 0.16666667
      value: -0.07618588
      inSlope: -0.41451934
      outSlope: -0.32103541
      tangentMode: 0
      weightedMode: 3
      inWeight: 0.33333334
      outWeight: 0.33333334
    - serializedVersion: 3
      time: 0.18333334
      value: -0.08153647
      inSlope: -0.32103541
      outSlope: -0.29461387
      tangentMode: 0
      weightedMode: 3
      inWeight: 0.33333334
      outWeight: 0.33333334
    - serializedVersion: 3
      time: 0.2
      value: -0.0864467
      inSlope: -0.29461387
      outSlope: -0.2668834
      tangentMode: 0
      weightedMode: 3
      inWeight: 0.33333334
      outWeight: 0.33333334
    - serializedVersion: 3
      time: 0.21666667
      value: -0.09089476
      inSlope: -0.2668834
      outSlope: -0.23779751
      tangentMode: 0
      weightedMode: 3
      inWeight: 0.33333334
      outWeight: 0.33333334
    - serializedVersion: 3
      time: 0.23333333
      value: -0.09485805
      inSlope: -0.23779751
      outSlope: -0.20762087
      tangentMode: 0
      weightedMode: 3
      inWeight: 0.33333334
      outWeight: 0.33333334
    - serializedVersion: 3
      time: 0.25
      value: -0.0983184
      inSlope: -0.20762087
      outSlope: -0.1768361
      tangentMode: 0
      weightedMode: 3
      inWeight: 0.33333334
      outWeight: 0.33333334
    - serializedVersion: 3
      time: 0.26666668
      value: -0.10126567
      inSlope: -0.1768361
      outSlope: -0.14608397
      tangentMode: 0
      weightedMode: 3
      inWeight: 0.33333334
      outWeight: 0.33333334
    - serializedVersion: 3
      time: 0.28333333
      value: -0.1037004
      inSlope: -0.14608397
      outSlope: -0.11628618
      tangentMode: 0
      weightedMode: 3
      inWeight: 0.33333334
      outWeight: 0.33333334
    - serializedVersion: 3
      time: 0.3
      value: -0.105638504
      inSlope: -0.11628618
      outSlope: -0.08848437
      tangentMode: 0
      weightedMode: 3
      inWeight: 0.33333334
      outWeight: 0.33333334
    - serializedVersion: 3
      time: 0.31666666
      value: -0.10711324
      inSlope: -0.08848437
      outSlope: -0.06393308
      tangentMode: 0
      weightedMode: 3
      inWeight: 0.33333334
      outWeight: 0.33333334
    - serializedVersion: 3
      time: 0.33333334
      value: -0.108178794
      inSlope: -0.06393308
      outSlope: 1.0221908
      tangentMode: 0
      weightedMode: 3
      inWeight: 0.33333334
      outWeight: 0.33333334
    - serializedVersion: 3
      time: 0.35
      value: -0.0911423
      inSlope: 1.0221908
      outSlope: 1.9102999
      tangentMode: 0
      weightedMode: 3
      inWeight: 0.33333334
      outWeight: 0.33333334
    - serializedVersion: 3
      time: 0.36666667
      value: -0.05930394
      inSlope: 1.9102999
      outSlope: 2.2139583
      tangentMode: 0
      weightedMode: 3
      inWeight: 0.33333334
      outWeight: 0.33333334
    - serializedVersion: 3
      time: 0.38333333
      value: -0.02240467
      inSlope: 2.2139583
      outSlope: 1.8422183
      tangentMode: 0
      weightedMode: 3
      inWeight: 0.33333334
      outWeight: 0.33333334
    - serializedVersion: 3
      time: 0.4
      value: 0.008298993
      inSlope: 1.8422183
      outSlope: 0.69900936
      tangentMode: 0
      weightedMode: 3
      inWeight: 0.33333334
      outWeight: 0.33333334
    - serializedVersion: 3
      time: 0.41666666
      value: 0.019949138
      inSlope: 0.69900936
      outSlope: -0.26290634
      tangentMode: 0
      weightedMode: 3
      inWeight: 0.33333334
      outWeight: 0.33333334
    - serializedVersion: 3
      time: 0.43333334
      value: 0.015567362
      inSlope: -0.26290634
      outSlope: -0.55070454
      tangentMode: 0
      weightedMode: 3
      inWeight: 0.33333334
      outWeight: 0.33333334
    - serializedVersion: 3
      time: 0.45
      value: 0.0063889623
      inSlope: -0.55070454
      outSlope: -1.7881128
      tangentMode: 0
      weightedMode: 3
      inWeight: 0.33333334
      outWeight: 0.33333334
    - serializedVersion: 3
      time: 0.46666667
      value: -0.023412943
      inSlope: -1.7881128
      outSlope: -2.703587
      tangentMode: 0
      weightedMode: 3
      inWeight: 0.33333334
      outWeight: 0.33333334
    - serializedVersion: 3
      time: 0.48333332
      value: -0.06847268
      inSlope: -2.703587
      outSlope: -2.6142182
      tangentMode: 0
      weightedMode: 3
      inWeight: 0.33333334
      outWeight: 0.33333334
    - serializedVersion: 3
      time: 0.5
      value: -0.11204302
      inSlope: -2.6142182
      outSlope: -2.2943995
      tangentMode: 0
      weightedMode: 3
      inWeight: 0.33333334
      outWeight: 0.33333334
    - serializedVersion: 3
      time: 0.51666665
      value: -0.15028298
      inSlope: -2.2943995
      outSlope: -2.2318995
      tangentMode: 0
      weightedMode: 3
      inWeight: 0.33333334
      outWeight: 0.33333334
    - serializedVersion: 3
      time: 0.53333336
      value: -0.1874814
      inSlope: -2.2318995
      outSlope: -1.8898934
      tangentMode: 0
      weightedMode: 3
      inWeight: 0.33333334
      outWeight: 0.33333334
    - serializedVersion: 3
      time: 0.55
      value: -0.2189796
      inSlope: -1.8898934
      outSlope: -1.3062763
      tangentMode: 0
      weightedMode: 3
      inWeight: 0.33333334
      outWeight: 0.33333334
    - serializedVersion: 3
      time: 0.56666666
      value: -0.24075085
      inSlope: -1.3062763
      outSlope: -0.5071132
      tangentMode: 0
      weightedMode: 3
      inWeight: 0.33333334
      outWeight: 0.33333334
    - serializedVersion: 3
      time: 0.5833333
      value: -0.24920273
      inSlope: -0.5071132
      outSlope: -0.044531707
      tangentMode: 0
      weightedMode: 3
      inWeight: 0.33333334
      outWeight: 0.33333334
    - serializedVersion: 3
      time: 0.6
      value: -0.24994493
      inSlope: -0.044531707
      outSlope: -0.036749873
      tangentMode: 0
      weightedMode: 3
      inWeight: 0.33333334
      outWeight: 0.33333334
    - serializedVersion: 3
      time: 0.6166667
      value: -0.25055742
      inSlope: -0.036749873
      outSlope: -0.02934697
      tangentMode: 0
      weightedMode: 3
      inWeight: 0.33333334
      outWeight: 0.33333334
    - serializedVersion: 3
      time: 0.6333333
      value: -0.25104654
      inSlope: -0.02934697
      outSlope: -0.022866748
      tangentMode: 0
      weightedMode: 3
      inWeight: 0.33333334
      outWeight: 0.33333334
    - serializedVersion: 3
      time: 0.65
      value: -0.25142765
      inSlope: -0.022866748
      outSlope: -0.016926482
      tangentMode: 0
      weightedMode: 3
      inWeight: 0.33333334
      outWeight: 0.33333334
    - serializedVersion: 3
      time: 0.6666667
      value: -0.25170976
      inSlope: -0.016926482
      outSlope: -0.011776697
      tangentMode: 0
      weightedMode: 3
      inWeight: 0.33333334
      outWeight: 0.33333334
    - serializedVersion: 3
      time: 0.68333334
      value: -0.25190604
      inSlope: -0.011776697
      outSlope: -0.0072670053
      tangentMode: 0
      weightedMode: 3
      inWeight: 0.33333334
      outWeight: 0.33333334
    - serializedVersion: 3
      time: 0.7
      value: -0.25202715
      inSlope: -0.0072670053
      outSlope: -0.0034904513
      tangentMode: 0
      weightedMode: 3
      inWeight: 0.33333334
      outWeight: 0.33333334
    - serializedVersion: 3
      time: 0.71666664
      value: -0.25208533
      inSlope: -0.0034904513
      outSlope: -0.000611542
      tangentMode: 0
      weightedMode: 3
      inWeight: 0.33333334
      outWeight: 0.33333334
    - serializedVersion: 3
      time: 0.73333335
      value: -0.25209552
      inSlope: -0.000611542
      outSlope: 0.0016129032
      tangentMode: 0
      weightedMode: 3
      inWeight: 0.33333334
      outWeight: 0.33333334
    - serializedVersion: 3
      time: 0.75
      value: -0.25206864
      inSlope: 0.0016129032
      outSlope: 0.0030970604
      tangentMode: 0
      weightedMode: 3
      inWeight: 0.33333334
      outWeight: 0.33333334
    - serializedVersion: 3
      time: 0.76666665
      value: -0.25201702
      inSlope: 0.0030970604
      outSlope: 0.0038587947
      tangentMode: 0
      weightedMode: 3
      inWeight: 0.33333334
      outWeight: 0.33333334
    - serializedVersion: 3
      time: 0.78333336
      value: -0.2519527
      inSlope: 0.0038587947
      outSlope: 0.0039231814
      tangentMode: 0
      weightedMode: 3
      inWeight: 0.33333334
      outWeight: 0.33333334
    - serializedVersion: 3
      time: 0.8
      value: -0.25188732
      inSlope: 0.0039231814
      outSlope: 0.0032436878
      tangentMode: 0
      weightedMode: 3
      inWeight: 0.33333334
      outWeight: 0.33333334
    - serializedVersion: 3
      time: 0.81666666
      value: -0.25183326
      inSlope: 0.0032436878
      outSlope: 0.0018990058
      tangentMode: 0
      weightedMode: 3
      inWeight: 0.33333334
      outWeight: 0.33333334
    - serializedVersion: 3
      time: 0.8333333
      value: -0.2518016
      inSlope: 0.0018990058
      outSlope: -0.000118016884
      tangentMode: 0
      weightedMode: 3
      inWeight: 0.33333334
      outWeight: 0.33333334
    - serializedVersion: 3
      time: 0.85
      value: -0.25180358
      inSlope: -0.000118016884
      outSlope: -0.0028324155
      tangentMode: 0
      weightedMode: 3
      inWeight: 0.33333334
      outWeight: 0.33333334
    - serializedVersion: 3
      time: 0.8666667
      value: -0.25185078
      inSlope: -0.0028324155
      outSlope: -0.006222731
      tangentMode: 0
      weightedMode: 3
      inWeight: 0.33333334
      outWeight: 0.33333334
    - serializedVersion: 3
      time: 0.8833333
      value: -0.2519545
      inSlope: -0.006222731
      outSlope: -0.010328303
      tangentMode: 0
      weightedMode: 3
      inWeight: 0.33333334
      outWeight: 0.33333334
    - serializedVersion: 3
      time: 0.9
      value: -0.25212663
      inSlope: -0.010328303
      outSlope: -0.015156229
      tangentMode: 0
      weightedMode: 3
      inWeight: 0.33333334
      outWeight: 0.33333334
    - serializedVersion: 3
      time: 0.9166667
      value: -0.25237924
      inSlope: -0.015156229
      outSlope: -0.02072098
      tangentMode: 0
      weightedMode: 3
      inWeight: 0.33333334
      outWeight: 0.33333334
    - serializedVersion: 3
      time: 0.93333334
      value: -0.2527246
      inSlope: -0.02072098
      outSlope: -0.027101066
      tangentMode: 0
      weightedMode: 3
      inWeight: 0.33333334
      outWeight: 0.33333334
    - serializedVersion: 3
      time: 0.95
      value: -0.25317627
      inSlope: -0.027101066
      outSlope: -0.03438953
      tangentMode: 0
      weightedMode: 3
      inWeight: 0.33333334
      outWeight: 0.33333334
    - serializedVersion: 3
      time: 0.96666664
      value: -0.25374943
      inSlope: -0.03438953
      outSlope: -0.04260052
      tangentMode: 0
      weightedMode: 3
      inWeight: 0.33333334
      outWeight: 0.33333334
    - serializedVersion: 3
      time: 0.98333335
      value: -0.25445944
      inSlope: -0.04260052
      outSlope: -0.051870394
      tangentMode: 0
      weightedMode: 3
      inWeight: 0.33333334
      outWeight: 0.33333334
    - serializedVersion: 3
      time: 1
      value: -0.25532395
      inSlope: -0.051870394
      outSlope: -0.051870394
      tangentMode: 0
      weightedMode: 3
      inWeight: 0.33333334
      outWeight: 0.33333334
    m_PreInfinity: 2
    m_PostInfinity: 2
    m_RotationOrder: 4
  gravityInfluence: 1
  movementMultiplier: 1
  soundEffect: {fileID: 8300000, guid: b2923998b175843d28601321e0faee0c, type: 3}
  hitPause: 0
  hitPauseAmount: 0.05
  hitPauseDuration: 0.1
  isAttack: 1
  isBlockable: 1
  pushForce: 0
  poiseDamage: 2
  defenseDamage: 1
  interruptible: 0
  vulnerability: 0
  posture: 0
  attackPhase:
    serializedVersion: 2
    m_Curve:
    - serializedVersion: 3
      time: 0
      value: 0
      inSlope: Infinity
      outSlope: Infinity
      tangentMode: 103
      weightedMode: 0
      inWeight: 0
      outWeight: 0
    - serializedVersion: 3
      time: 0.46319848
      value: 1
      inSlope: Infinity
      outSlope: Infinity
      tangentMode: 103
      weightedMode: 0
      inWeight: 0
      outWeight: 0
    - serializedVersion: 3
      time: 0.6840167
      value: 2
      inSlope: Infinity
      outSlope: Infinity
      tangentMode: 103
      weightedMode: 0
      inWeight: 0
      outWeight: 0
    - serializedVersion: 3
      time: 1
      value: 2
      inSlope: Infinity
      outSlope: Infinity
      tangentMode: 103
      weightedMode: 0
      inWeight: 0
      outWeight: 0
    m_PreInfinity: 2
    m_PostInfinity: 2
    m_RotationOrder: 4
  actionsOnExecute: {fileID: 4712992859306537035, guid: 21787e809230d02409ec0367516ef203, type: 3}
  actionsOnHit: {fileID: 2392881196070346200, guid: 36c0e5613872de047acc8c96c39e9275, type: 3}
