%YAML 1.1
%TAG !u! tag:unity3d.com,2011:
--- !u!114 &11400000
MonoBehaviour:
  m_ObjectHideFlags: 0
  m_CorrespondingSourceObject: {fileID: 0}
  m_PrefabInstance: {fileID: 0}
  m_PrefabAsset: {fileID: 0}
  m_GameObject: {fileID: 0}
  m_Enabled: 1
  m_EditorHideFlags: 0
  m_Script: {fileID: 11500000, guid: af074dba030af45af95ab60f307eb78c, type: 3}
  m_Name: Special_Hammerfall
  m_EditorClassIdentifier: 
  animationClip: {fileID: 74223480611069560, guid: 9f915830337e8493a9e6a6e38b34cd79,
    type: 2}
  avatarMask: {fileID: 0}
  transitionIn: 0.05
  transitionOut: 0.15
  movementForward:
    serializedVersion: 2
    m_Curve:
    - serializedVersion: 3
      time: 0
      value: 0
      inSlope: 0.0016569345
      outSlope: 0.0016569345
      tangentMode: 0
      weightedMode: 3
      inWeight: 0.33333334
      outWeight: 0.33333334
    - serializedVersion: 3
      time: 0.033333335
      value: 0.000027615577
      inSlope: 0.0016569345
      outSlope: -0.065155104
      tangentMode: 0
      weightedMode: 3
      inWeight: 0.33333334
      outWeight: 0.33333334
    - serializedVersion: 3
      time: 0.06666667
      value: -0.0010583028
      inSlope: -0.065155104
      outSlope: -0.21653609
      tangentMode: 0
      weightedMode: 3
      inWeight: 0.33333334
      outWeight: 0.33333334
    - serializedVersion: 3
      time: 0.1
      value: -0.0046672374
      inSlope: -0.21653609
      outSlope: -0.37335783
      tangentMode: 0
      weightedMode: 3
      inWeight: 0.33333334
      outWeight: 0.33333334
    - serializedVersion: 3
      time: 0.13333334
      value: -0.010889869
      inSlope: -0.37335783
      outSlope: -0.4497848
      tangentMode: 0
      weightedMode: 3
      inWeight: 0.33333334
      outWeight: 0.33333334
    - serializedVersion: 3
      time: 0.16666667
      value: -0.018386282
      inSlope: -0.4497848
      outSlope: 2.3479111
      tangentMode: 0
      weightedMode: 3
      inWeight: 0.33333334
      outWeight: 0.33333334
    - serializedVersion: 3
      time: 0.2
      value: 0.020745568
      inSlope: 2.3479111
      outSlope: 4.0104003
      tangentMode: 0
      weightedMode: 3
      inWeight: 0.33333334
      outWeight: 0.33333334
    - serializedVersion: 3
      time: 0.23333333
      value: 0.08758557
      inSlope: 4.0104003
      outSlope: 3.811769
      tangentMode: 0
      weightedMode: 3
      inWeight: 0.33333334
      outWeight: 0.33333334
    - serializedVersion: 3
      time: 0.26666668
      value: 0.15111507
      inSlope: 3.811769
      outSlope: 2.4286578
      tangentMode: 0
      weightedMode: 3
      inWeight: 0.33333334
      outWeight: 0.33333334
    - serializedVersion: 3
      time: 0.3
      value: 0.1915927
      inSlope: 2.4286578
      outSlope: 0.9156767
      tangentMode: 0
      weightedMode: 3
      inWeight: 0.33333334
      outWeight: 0.33333334
    - serializedVersion: 3
      time: 0.33333334
      value: 0.20685397
      inSlope: 0.9156767
      outSlope: 0.42266968
      tangentMode: 0
      weightedMode: 3
      inWeight: 0.33333334
      outWeight: 0.33333334
    - serializedVersion: 3
      time: 0.36666667
      value: 0.21389847
      inSlope: 0.42266968
      outSlope: 0.23944975
      tangentMode: 0
      weightedMode: 3
      inWeight: 0.33333334
      outWeight: 0.33333334
    - serializedVersion: 3
      time: 0.4
      value: 0.2178893
      inSlope: 0.23944975
      outSlope: 0.13950618
      tangentMode: 0
      weightedMode: 3
      inWeight: 0.33333334
      outWeight: 0.33333334
    - serializedVersion: 3
      time: 0.43333334
      value: 0.2202144
      inSlope: 0.13950618
      outSlope: 0.08517534
      tangentMode: 0
      weightedMode: 3
      inWeight: 0.33333334
      outWeight: 0.33333334
    - serializedVersion: 3
      time: 0.46666667
      value: 0.22163399
      inSlope: 0.08517534
      outSlope: 0.04953057
      tangentMode: 0
      weightedMode: 3
      inWeight: 0.33333334
      outWeight: 0.33333334
    - serializedVersion: 3
      time: 0.5
      value: 0.2224595
      inSlope: 0.04953057
      outSlope: 0.006797606
      tangentMode: 0
      weightedMode: 3
      inWeight: 0.33333334
      outWeight: 0.33333334
    - serializedVersion: 3
      time: 0.53333336
      value: 0.22257279
      inSlope: 0.006797606
      outSlope: -0.014009191
      tangentMode: 0
      weightedMode: 3
      inWeight: 0.33333334
      outWeight: 0.33333334
    - serializedVersion: 3
      time: 0.56666666
      value: 0.2223393
      inSlope: -0.014009191
      outSlope: -0.036907166
      tangentMode: 0
      weightedMode: 3
      inWeight: 0.33333334
      outWeight: 0.33333334
    - serializedVersion: 3
      time: 0.6
      value: 0.22172418
      inSlope: -0.036907166
      outSlope: -0.06267434
      tangentMode: 0
      weightedMode: 3
      inWeight: 0.33333334
      outWeight: 0.33333334
    - serializedVersion: 3
      time: 0.6333333
      value: 0.22067961
      inSlope: -0.06267434
      outSlope: -0.090409145
      tangentMode: 0
      weightedMode: 3
      inWeight: 0.33333334
      outWeight: 0.33333334
    - serializedVersion: 3
      time: 0.6666667
      value: 0.21917279
      inSlope: -0.090409145
      outSlope: -0.117126815
      tangentMode: 0
      weightedMode: 3
      inWeight: 0.33333334
      outWeight: 0.33333334
    - serializedVersion: 3
      time: 0.7
      value: 0.21722068
      inSlope: -0.117126815
      outSlope: -0.13925123
      tangentMode: 0
      weightedMode: 3
      inWeight: 0.33333334
      outWeight: 0.33333334
    - serializedVersion: 3
      time: 0.73333335
      value: 0.21489982
      inSlope: -0.13925123
      outSlope: -0.15272066
      tangentMode: 0
      weightedMode: 3
      inWeight: 0.33333334
      outWeight: 0.33333334
    - serializedVersion: 3
      time: 0.76666665
      value: 0.21235448
      inSlope: -0.15272066
      outSlope: -0.15586035
      tangentMode: 0
      weightedMode: 3
      inWeight: 0.33333334
      outWeight: 0.33333334
    - serializedVersion: 3
      time: 0.8
      value: 0.2097568
      inSlope: -0.15586035
      outSlope: -0.14891014
      tangentMode: 0
      weightedMode: 3
      inWeight: 0.33333334
      outWeight: 0.33333334
    - serializedVersion: 3
      time: 0.8333333
      value: 0.20727497
      inSlope: -0.14891014
      outSlope: -0.1335891
      tangentMode: 0
      weightedMode: 3
      inWeight: 0.33333334
      outWeight: 0.33333334
    - serializedVersion: 3
      time: 0.8666667
      value: 0.20504849
      inSlope: -0.1335891
      outSlope: -0.11176954
      tangentMode: 0
      weightedMode: 3
      inWeight: 0.33333334
      outWeight: 0.33333334
    - serializedVersion: 3
      time: 0.9
      value: 0.20318566
      inSlope: -0.11176954
      outSlope: -0.08494191
      tangentMode: 0
      weightedMode: 3
      inWeight: 0.33333334
      outWeight: 0.33333334
    - serializedVersion: 3
      time: 0.93333334
      value: 0.20176996
      inSlope: -0.08494191
      outSlope: -0.053747945
      tangentMode: 0
      weightedMode: 3
      inWeight: 0.33333334
      outWeight: 0.33333334
    - serializedVersion: 3
      time: 0.96666664
      value: 0.20087416
      inSlope: -0.053747945
      outSlope: -0.01874505
      tangentMode: 0
      weightedMode: 3
      inWeight: 0.33333334
      outWeight: 0.33333334
    - serializedVersion: 3
      time: 1
      value: 0.20056175
      inSlope: -0.01874505
      outSlope: -0.01874505
      tangentMode: 0
      weightedMode: 3
      inWeight: 0.33333334
      outWeight: 0.33333334
    m_PreInfinity: 2
    m_PostInfinity: 2
    m_RotationOrder: 4
  movementSides:
    serializedVersion: 2
    m_Curve:
    - serializedVersion: 3
      time: 0
      value: 0
      inSlope: 0.03975621
      outSlope: 0.03975621
      tangentMode: 0
      weightedMode: 3
      inWeight: 0.33333334
      outWeight: 0.33333334
    - serializedVersion: 3
      time: 0.033333335
      value: 0.00066260353
      inSlope: 0.03975621
      outSlope: 0.12931989
      tangentMode: 0
      weightedMode: 3
      inWeight: 0.33333334
      outWeight: 0.33333334
    - serializedVersion: 3
      time: 0.06666667
      value: 0.002817935
      inSlope: 0.12931989
      outSlope: 0.24404225
      tangentMode: 0
      weightedMode: 3
      inWeight: 0.33333334
      outWeight: 0.33333334
    - serializedVersion: 3
      time: 0.1
      value: 0.006885306
      inSlope: 0.24404225
      outSlope: 0.311902
      tangentMode: 0
      weightedMode: 3
      inWeight: 0.33333334
      outWeight: 0.33333334
    - serializedVersion: 3
      time: 0.13333334
      value: 0.012083674
      inSlope: 0.311902
      outSlope: 0.195303
      tangentMode: 0
      weightedMode: 3
      inWeight: 0.33333334
      outWeight: 0.33333334
    - serializedVersion: 3
      time: 0.16666667
      value: 0.015338724
      inSlope: 0.195303
      outSlope: -0.045960102
      tangentMode: 0
      weightedMode: 3
      inWeight: 0.33333334
      outWeight: 0.33333334
    - serializedVersion: 3
      time: 0.2
      value: 0.014572722
      inSlope: -0.045960102
      outSlope: 0.050972983
      tangentMode: 0
      weightedMode: 3
      inWeight: 0.33333334
      outWeight: 0.33333334
    - serializedVersion: 3
      time: 0.23333333
      value: 0.015422272
      inSlope: 0.050972983
      outSlope: 0.16535299
      tangentMode: 0
      weightedMode: 3
      inWeight: 0.33333334
      outWeight: 0.33333334
    - serializedVersion: 3
      time: 0.26666668
      value: 0.018178156
      inSlope: 0.16535299
      outSlope: -0.07024337
      tangentMode: 0
      weightedMode: 3
      inWeight: 0.33333334
      outWeight: 0.33333334
    - serializedVersion: 3
      time: 0.3
      value: 0.017007433
      inSlope: -0.07024337
      outSlope: -0.058278147
      tangentMode: 0
      weightedMode: 3
      inWeight: 0.33333334
      outWeight: 0.33333334
    - serializedVersion: 3
      time: 0.33333334
      value: 0.01603613
      inSlope: -0.058278147
      outSlope: 0.03526904
      tangentMode: 0
      weightedMode: 3
      inWeight: 0.33333334
      outWeight: 0.33333334
    - serializedVersion: 3
      time: 0.36666667
      value: 0.016623948
      inSlope: 0.03526904
      outSlope: 0.027097577
      tangentMode: 0
      weightedMode: 3
      inWeight: 0.33333334
      outWeight: 0.33333334
    - serializedVersion: 3
      time: 0.4
      value: 0.017075574
      inSlope: 0.027097577
      outSlope: 0.011262373
      tangentMode: 0
      weightedMode: 3
      inWeight: 0.33333334
      outWeight: 0.33333334
    - serializedVersion: 3
      time: 0.43333334
      value: 0.01726328
      inSlope: 0.011262373
      outSlope: -0.001836978
      tangentMode: 0
      weightedMode: 3
      inWeight: 0.33333334
      outWeight: 0.33333334
    - serializedVersion: 3
      time: 0.46666667
      value: 0.017232664
      inSlope: -0.001836978
      outSlope: -0.005596653
      tangentMode: 0
      weightedMode: 3
      inWeight: 0.33333334
      outWeight: 0.33333334
    - serializedVersion: 3
      time: 0.5
      value: 0.017139386
      inSlope: -0.005596653
      outSlope: 0.07122902
      tangentMode: 0
      weightedMode: 3
      inWeight: 0.33333334
      outWeight: 0.33333334
    - serializedVersion: 3
      time: 0.53333336
      value: 0.018326538
      inSlope: 0.07122902
      outSlope: 0.08569264
      tangentMode: 0
      weightedMode: 3
      inWeight: 0.33333334
      outWeight: 0.33333334
    - serializedVersion: 3
      time: 0.56666666
      value: 0.019754747
      inSlope: 0.08569264
      outSlope: 0.090791024
      tangentMode: 0
      weightedMode: 3
      inWeight: 0.33333334
      outWeight: 0.33333334
    - serializedVersion: 3
      time: 0.6
      value: 0.021267932
      inSlope: 0.090791024
      outSlope: 0.08602288
      tangentMode: 0
      weightedMode: 3
      inWeight: 0.33333334
      outWeight: 0.33333334
    - serializedVersion: 3
      time: 0.6333333
      value: 0.022701645
      inSlope: 0.08602288
      outSlope: 0.07187644
      tangentMode: 0
      weightedMode: 3
      inWeight: 0.33333334
      outWeight: 0.33333334
    - serializedVersion: 3
      time: 0.6666667
      value: 0.023899587
      inSlope: 0.07187644
      outSlope: 0.050012406
      tangentMode: 0
      weightedMode: 3
      inWeight: 0.33333334
      outWeight: 0.33333334
    - serializedVersion: 3
      time: 0.7
      value: 0.024733126
      inSlope: 0.050012406
      outSlope: 0.0229075
      tangentMode: 0
      weightedMode: 3
      inWeight: 0.33333334
      outWeight: 0.33333334
    - serializedVersion: 3
      time: 0.73333335
      value: 0.025114918
      inSlope: 0.0229075
      outSlope: -0.004479852
      tangentMode: 0
      weightedMode: 3
      inWeight: 0.33333334
      outWeight: 0.33333334
    - serializedVersion: 3
      time: 0.76666665
      value: 0.025040254
      inSlope: -0.004479852
      outSlope: -0.027638912
      tangentMode: 0
      weightedMode: 3
      inWeight: 0.33333334
      outWeight: 0.33333334
    - serializedVersion: 3
      time: 0.8
      value: 0.024579605
      inSlope: -0.027638912
      outSlope: -0.04308101
      tangentMode: 0
      weightedMode: 3
      inWeight: 0.33333334
      outWeight: 0.33333334
    - serializedVersion: 3
      time: 0.8333333
      value: 0.023861589
      inSlope: -0.04308101
      outSlope: -0.049619596
      tangentMode: 0
      weightedMode: 3
      inWeight: 0.33333334
      outWeight: 0.33333334
    - serializedVersion: 3
      time: 0.8666667
      value: 0.023034595
      inSlope: -0.049619596
      outSlope: -0.04791536
      tangentMode: 0
      weightedMode: 3
      inWeight: 0.33333334
      outWeight: 0.33333334
    - serializedVersion: 3
      time: 0.9
      value: 0.022236006
      inSlope: -0.04791536
      outSlope: -0.039729293
      tangentMode: 0
      weightedMode: 3
      inWeight: 0.33333334
      outWeight: 0.33333334
    - serializedVersion: 3
      time: 0.93333334
      value: 0.02157385
      inSlope: -0.039729293
      outSlope: -0.02638011
      tangentMode: 0
      weightedMode: 3
      inWeight: 0.33333334
      outWeight: 0.33333334
    - serializedVersion: 3
      time: 0.96666664
      value: 0.021134183
      inSlope: -0.02638011
      outSlope: -0.00944718
      tangentMode: 0
      weightedMode: 3
      inWeight: 0.33333334
      outWeight: 0.33333334
    - serializedVersion: 3
      time: 1
      value: 0.02097673
      inSlope: -0.00944718
      outSlope: -0.00944718
      tangentMode: 0
      weightedMode: 3
      inWeight: 0.33333334
      outWeight: 0.33333334
    m_PreInfinity: 2
    m_PostInfinity: 2
    m_RotationOrder: 4
  movementVertical:
    serializedVersion: 2
    m_Curve:
    - serializedVersion: 3
      time: 0
      value: 0
      inSlope: 0.9483611
      outSlope: 0.9483611
      tangentMode: 0
      weightedMode: 3
      inWeight: 0.33333334
      outWeight: 0.33333334
    - serializedVersion: 3
      time: 0.033333335
      value: 0.01580602
      inSlope: 0.9483611
      outSlope: 2.220726
      tangentMode: 0
      weightedMode: 3
      inWeight: 0.33333334
      outWeight: 0.33333334
    - serializedVersion: 3
      time: 0.06666667
      value: 0.05281812
      inSlope: 2.220726
      outSlope: 2.526466
      tangentMode: 0
      weightedMode: 3
      inWeight: 0.33333334
      outWeight: 0.33333334
    - serializedVersion: 3
      time: 0.1
      value: 0.09492588
      inSlope: 2.526466
      outSlope: 1.8647608
      tangentMode: 0
      weightedMode: 3
      inWeight: 0.33333334
      outWeight: 0.33333334
    - serializedVersion: 3
      time: 0.13333334
      value: 0.12600523
      inSlope: 1.8647608
      outSlope: 0.41947606
      tangentMode: 0
      weightedMode: 3
      inWeight: 0.33333334
      outWeight: 0.33333334
    - serializedVersion: 3
      time: 0.16666667
      value: 0.1329965
      inSlope: 0.41947606
      outSlope: -34.51172
      tangentMode: 0
      weightedMode: 3
      inWeight: 0.33333334
      outWeight: 0.33333334
    - serializedVersion: 3
      time: 0.2
      value: -0.44219875
      inSlope: -34.51172
      outSlope: -83.69693
      tangentMode: 0
      weightedMode: 3
      inWeight: 0.33333334
      outWeight: 0.33333334
    - serializedVersion: 3
      time: 0.23333333
      value: -1.8371475
      inSlope: -83.69693
      outSlope: -103.076195
      tangentMode: 0
      weightedMode: 3
      inWeight: 0.33333334
      outWeight: 0.33333334
    - serializedVersion: 3
      time: 0.26666668
      value: -3.5550847
      inSlope: -103.076195
      outSlope: -88.96795
      tangentMode: 0
      weightedMode: 3
      inWeight: 0.33333334
      outWeight: 0.33333334
    - serializedVersion: 3
      time: 0.3
      value: -5.0378838
      inSlope: -88.96795
      outSlope: -38.800022
      tangentMode: 0
      weightedMode: 3
      inWeight: 0.33333334
      outWeight: 0.33333334
    - serializedVersion: 3
      time: 0.33333334
      value: -5.684551
      inSlope: -38.800022
      outSlope: -1.8028737
      tangentMode: 0
      weightedMode: 3
      inWeight: 0.33333334
      outWeight: 0.33333334
    - serializedVersion: 3
      time: 0.36666667
      value: -5.7145987
      inSlope: -1.8028737
      outSlope: -1.4087964
      tangentMode: 0
      weightedMode: 3
      inWeight: 0.33333334
      outWeight: 0.33333334
    - serializedVersion: 3
      time: 0.4
      value: -5.7380786
      inSlope: -1.4087964
      outSlope: -1.0360624
      tangentMode: 0
      weightedMode: 3
      inWeight: 0.33333334
      outWeight: 0.33333334
    - serializedVersion: 3
      time: 0.43333334
      value: -5.7553463
      inSlope: -1.0360624
      outSlope: -0.70366865
      tangentMode: 0
      weightedMode: 3
      inWeight: 0.33333334
      outWeight: 0.33333334
    - serializedVersion: 3
      time: 0.46666667
      value: -5.767074
      inSlope: -0.70366865
      outSlope: -0.4166222
      tangentMode: 0
      weightedMode: 3
      inWeight: 0.33333334
      outWeight: 0.33333334
    - serializedVersion: 3
      time: 0.5
      value: -5.774018
      inSlope: -0.4166222
      outSlope: 0.30409786
      tangentMode: 0
      weightedMode: 3
      inWeight: 0.33333334
      outWeight: 0.33333334
    - serializedVersion: 3
      time: 0.53333336
      value: -5.7689495
      inSlope: 0.30409786
      outSlope: 0.36526716
      tangentMode: 0
      weightedMode: 3
      inWeight: 0.33333334
      outWeight: 0.33333334
    - serializedVersion: 3
      time: 0.56666666
      value: -5.7628617
      inSlope: 0.36526716
      outSlope: 0.41905367
      tangentMode: 0
      weightedMode: 3
      inWeight: 0.33333334
      outWeight: 0.33333334
    - serializedVersion: 3
      time: 0.6
      value: -5.7558775
      inSlope: 0.41905367
      outSlope: 0.4635434
      tangentMode: 0
      weightedMode: 3
      inWeight: 0.33333334
      outWeight: 0.33333334
    - serializedVersion: 3
      time: 0.6333333
      value: -5.748152
      inSlope: 0.4635434
      outSlope: 0.49587208
      tangentMode: 0
      weightedMode: 3
      inWeight: 0.33333334
      outWeight: 0.33333334
    - serializedVersion: 3
      time: 0.6666667
      value: -5.739887
      inSlope: 0.49587208
      outSlope: 0.5129819
      tangentMode: 0
      weightedMode: 3
      inWeight: 0.33333334
      outWeight: 0.33333334
    - serializedVersion: 3
      time: 0.7
      value: -5.7313375
      inSlope: 0.5129819
      outSlope: 0.51229435
      tangentMode: 0
      weightedMode: 3
      inWeight: 0.33333334
      outWeight: 0.33333334
    - serializedVersion: 3
      time: 0.73333335
      value: -5.7227993
      inSlope: 0.51229435
      outSlope: 0.4937272
      tangentMode: 0
      weightedMode: 3
      inWeight: 0.33333334
      outWeight: 0.33333334
    - serializedVersion: 3
      time: 0.76666665
      value: -5.7145705
      inSlope: 0.4937272
      outSlope: 0.45876464
      tangentMode: 0
      weightedMode: 3
      inWeight: 0.33333334
      outWeight: 0.33333334
    - serializedVersion: 3
      time: 0.8
      value: -5.7069244
      inSlope: 0.45876464
      outSlope: 0.41038552
      tangentMode: 0
      weightedMode: 3
      inWeight: 0.33333334
      outWeight: 0.33333334
    - serializedVersion: 3
      time: 0.8333333
      value: -5.7000847
      inSlope: 0.41038552
      outSlope: 0.35201997
      tangentMode: 0
      weightedMode: 3
      inWeight: 0.33333334
      outWeight: 0.33333334
    - serializedVersion: 3
      time: 0.8666667
      value: -5.6942177
      inSlope: 0.35201997
      outSlope: 0.2859595
      tangentMode: 0
      weightedMode: 3
      inWeight: 0.33333334
      outWeight: 0.33333334
    - serializedVersion: 3
      time: 0.9
      value: -5.6894517
      inSlope: 0.2859595
      outSlope: 0.21294576
      tangentMode: 0
      weightedMode: 3
      inWeight: 0.33333334
      outWeight: 0.33333334
    - serializedVersion: 3
      time: 0.93333334
      value: -5.6859026
      inSlope: 0.21294576
      outSlope: 0.13372435
      tangentMode: 0
      weightedMode: 3
      inWeight: 0.33333334
      outWeight: 0.33333334
    - serializedVersion: 3
      time: 0.96666664
      value: -5.683674
      inSlope: 0.13372435
      outSlope: 0.046577416
      tangentMode: 0
      weightedMode: 3
      inWeight: 0.33333334
      outWeight: 0.33333334
    - serializedVersion: 3
      time: 1
      value: -5.6828976
      inSlope: 0.046577416
      outSlope: 0.046577416
      tangentMode: 0
      weightedMode: 3
      inWeight: 0.33333334
      outWeight: 0.33333334
    m_PreInfinity: 2
    m_PostInfinity: 2
    m_RotationOrder: 4
  gravityInfluence: 0
  movementMultiplier: 1
  soundEffect: {fileID: 8300000, guid: c7a07910244f34f5ab7fd1ce120bd356, type: 3}
  hitPause: 1
  hitPauseAmount: 0.1
  hitPauseDuration: 0.5
  isAttack: 1
  isBlockable: 1
  pushForce: 0
  poiseDamage: 10
  defenseDamage: 1
  interruptible: 0
  vulnerability: 0
  posture: 0
  attackPhase:
    serializedVersion: 2
    m_Curve:
    - serializedVersion: 3
      time: 0
      value: 0
      inSlope: Infinity
      outSlope: Infinity
      tangentMode: 103
      weightedMode: 0
      inWeight: 0
      outWeight: 0
    - serializedVersion: 3
      time: 0.081888646
      value: 1
      inSlope: Infinity
      outSlope: Infinity
      tangentMode: 103
      weightedMode: 0
      inWeight: 0
      outWeight: 0
    - serializedVersion: 3
      time: 0.24602634
      value: 2
      inSlope: Infinity
      outSlope: Infinity
      tangentMode: 103
      weightedMode: 0
      inWeight: 0
      outWeight: 0
    - serializedVersion: 3
      time: 0.5
      value: 2
      inSlope: Infinity
      outSlope: Infinity
      tangentMode: 103
      weightedMode: 0
      inWeight: 0
      outWeight: 0
    m_PreInfinity: 2
    m_PostInfinity: 2
    m_RotationOrder: 4
  actionsOnExecute: {fileID: 7037612469018301374, guid: f3b786ca1b2ea4719b231dd55976eff1,
    type: 3}
  actionsOnHit: {fileID: 8957820419760122289, guid: 95dcc682dafd84c3eb6d2c924b173f98,
    type: 3}
