%YAML 1.1
%TAG !u! tag:unity3d.com,2011:
--- !u!114 &11400000
MonoBehaviour:
  m_ObjectHideFlags: 0
  m_CorrespondingSourceObject: {fileID: 0}
  m_PrefabInstance: {fileID: 0}
  m_PrefabAsset: {fileID: 0}
  m_GameObject: {fileID: 0}
  m_Enabled: 1
  m_EditorHideFlags: 0
  m_Script: {fileID: 11500000, guid: 2c0d00339f58d4376918ded2a84e3ffd, type: 3}
  m_Name: StateAxeMotion
  m_EditorClassIdentifier: 
  type: 1
  rtcSimple: {fileID: 221161001172850442}
  rtcLocomotion: {fileID: 221793186460999426}
  rtcOther: {fileID: 0}
  enterClip: {fileID: 0}
  enterAvatarMask: {fileID: 0}
  exitClip: {fileID: 0}
  exitAvatarMask: {fileID: 0}
--- !u!221 &221161001172850442
AnimatorOverrideController:
  m_ObjectHideFlags: 1
  m_CorrespondingSourceObject: {fileID: 0}
  m_PrefabInstance: {fileID: 0}
  m_PrefabAsset: {fileID: 0}
  m_Name: Simple
  m_Controller: {fileID: 9100000, guid: 7e5e3872d84174d9a9ddf67745628fb5, type: 2}
  m_Clips: []
--- !u!221 &221793186460999426
AnimatorOverrideController:
  m_ObjectHideFlags: 1
  m_CorrespondingSourceObject: {fileID: 0}
  m_PrefabInstance: {fileID: 0}
  m_PrefabAsset: {fileID: 0}
  m_Name: Locomotion
  m_Controller: {fileID: 9100000, guid: 3f1e2f14ae32849fab8d6425e1c058cb, type: 2}
  m_Clips:
  - m_OriginalClip: {fileID: 74822647580234304, guid: 7adf3f4052f80468ab57a887ef72a785, type: 2}
    m_OverrideClip: {fileID: 7400000, guid: af038cc78e35f224c803022e05633cc6, type: 3}
  - m_OriginalClip: {fileID: 74538193784720558, guid: d0448feeb4f2d4a16a49098ccac021d3, type: 2}
    m_OverrideClip: {fileID: 7400000, guid: 36e26b318db1bbb468672851468c87a6, type: 3}
  - m_OriginalClip: {fileID: 74205822642351040, guid: d0448feeb4f2d4a16a49098ccac021d3, type: 2}
    m_OverrideClip: {fileID: 7400000, guid: dfd8d6019febf7f42a92801b1bb57b73, type: 3}
  - m_OriginalClip: {fileID: 74496820790644724, guid: d0448feeb4f2d4a16a49098ccac021d3, type: 2}
    m_OverrideClip: {fileID: 7400000, guid: 3c1ccb8657ed51649aad853844d6ffcd, type: 3}
  - m_OriginalClip: {fileID: 74239056794477724, guid: d0448feeb4f2d4a16a49098ccac021d3, type: 2}
    m_OverrideClip: {fileID: 7400000, guid: 7ed47638b01d97f42ae685341bef16b2, type: 3}
  - m_OriginalClip: {fileID: 74915479222496890, guid: d0448feeb4f2d4a16a49098ccac021d3, type: 2}
    m_OverrideClip: {fileID: 7400000, guid: a2f2a90a93dc11a499edecd3e00212e2, type: 3}
  - m_OriginalClip: {fileID: 74585805865667330, guid: 7adf3f4052f80468ab57a887ef72a785, type: 2}
    m_OverrideClip: {fileID: 7400000, guid: 4b7fafdd34b15c147b3132d705992da6, type: 3}
  - m_OriginalClip: {fileID: 74409621139028792, guid: 7adf3f4052f80468ab57a887ef72a785, type: 2}
    m_OverrideClip: {fileID: 7400000, guid: c860c71476e118c4395c96187870699a, type: 3}
  - m_OriginalClip: {fileID: 74476075724409954, guid: 7adf3f4052f80468ab57a887ef72a785, type: 2}
    m_OverrideClip: {fileID: 7400000, guid: 6895b32d24494b24ab3c2b7ab2f96ebf, type: 3}
  - m_OriginalClip: {fileID: 74843495044726866, guid: 7adf3f4052f80468ab57a887ef72a785, type: 2}
    m_OverrideClip: {fileID: 7400000, guid: 6175c5fd46c57e44b930efa68c8b2b81, type: 3}
  - m_OriginalClip: {fileID: 74889151046035584, guid: 7adf3f4052f80468ab57a887ef72a785, type: 2}
    m_OverrideClip: {fileID: 7400000, guid: 6fab3b01c8497a54d95490091ba1b1c1, type: 3}
  - m_OriginalClip: {fileID: 74986827028995018, guid: 7adf3f4052f80468ab57a887ef72a785, type: 2}
    m_OverrideClip: {fileID: 7400000, guid: 584750bcd8147e042a94549bb8002836, type: 3}
