%YAML 1.1
%TAG !u! tag:unity3d.com,2011:
--- !u!319 &31900000
AvatarMask:
  m_ObjectHideFlags: 0
  m_CorrespondingSourceObject: {fileID: 0}
  m_PrefabInstance: {fileID: 0}
  m_PrefabAsset: {fileID: 0}
  m_Name: UpperBody
  m_Mask: 00000000010000000100000000000000000000000100000001000000010000000100000000000000000000000100000001000000
  m_Elements:
  - m_Path: 
    m_Weight: 1
  - m_Path: Character_Ghost_01
    m_Weight: 1
  - m_Path: Character_Ghost_02
    m_Weight: 1
  - m_Path: Character_Goblin_Female
    m_Weight: 1
  - m_Path: Character_Goblin_Male
    m_Weight: 1
  - m_Path: Character_Goblin_Shaman
    m_Weight: 1
  - m_Path: Character_Goblin_WarChief
    m_Weight: 1
  - m_Path: Character_Goblin_Warrior_Female
    m_Weight: 1
  - m_Path: Character_Goblin_Warrior_Male
    m_Weight: 1
  - m_Path: Character_Hero_Knight_Female
    m_Weight: 1
  - m_Path: Character_Hero_Knight_Male
    m_Weight: 1
  - m_Path: Character_Rock_Golem
    m_Weight: 1
  - m_Path: Character_Skeleton_Knight
    m_Weight: 1
  - m_Path: Character_Skeleton_Slave_01
    m_Weight: 1
  - m_Path: Character_Skeleton_Soldier_01
    m_Weight: 1
  - m_Path: Character_Skeleton_Soldier_02
    m_Weight: 1
  - m_Path: Character_Tormented_Soul
    m_Weight: 1
  - m_Path: Root
    m_Weight: 1
  - m_Path: Root/Hips
    m_Weight: 1
  - m_Path: Root/Hips/SM_Item_Bag_Large
    m_Weight: 1
  - m_Path: Root/Hips/SM_Item_Bags
    m_Weight: 1
  - m_Path: Root/Hips/SM_Item_Bones
    m_Weight: 1
  - m_Path: Root/Hips/SM_Item_Horn
    m_Weight: 1
  - m_Path: Root/Hips/SM_Item_Shrooms
    m_Weight: 1
  - m_Path: Root/Hips/SM_Item_Shrunken_Head
    m_Weight: 1
  - m_Path: Root/Hips/Spine_01
    m_Weight: 1
  - m_Path: Root/Hips/Spine_01/Spine_02
    m_Weight: 1
  - m_Path: Root/Hips/Spine_01/Spine_02/SM_Item_Goblin_WarBanner
    m_Weight: 1
  - m_Path: Root/Hips/Spine_01/Spine_02/SM_Item_Shield
    m_Weight: 1
  - m_Path: Root/Hips/Spine_01/Spine_02/SM_Item_Sword
    m_Weight: 1
  - m_Path: Root/Hips/Spine_01/Spine_02/Spine_03
    m_Weight: 1
  - m_Path: Root/Hips/Spine_01/Spine_02/Spine_03/Clavicle_L
    m_Weight: 1
  - m_Path: Root/Hips/Spine_01/Spine_02/Spine_03/Clavicle_L/Shoulder_L
    m_Weight: 1
  - m_Path: Root/Hips/Spine_01/Spine_02/Spine_03/Clavicle_L/Shoulder_L/Elbow_L
    m_Weight: 1
  - m_Path: Root/Hips/Spine_01/Spine_02/Spine_03/Clavicle_L/Shoulder_L/Elbow_L/Hand_L
    m_Weight: 1
  - m_Path: Root/Hips/Spine_01/Spine_02/Spine_03/Clavicle_L/Shoulder_L/Elbow_L/Hand_L/Finger_01
    m_Weight: 1
  - m_Path: Root/Hips/Spine_01/Spine_02/Spine_03/Clavicle_L/Shoulder_L/Elbow_L/Hand_L/Finger_01/Finger_02
    m_Weight: 1
  - m_Path: Root/Hips/Spine_01/Spine_02/Spine_03/Clavicle_L/Shoulder_L/Elbow_L/Hand_L/Finger_01/Finger_02/Finger_03
    m_Weight: 1
  - m_Path: Root/Hips/Spine_01/Spine_02/Spine_03/Clavicle_L/Shoulder_L/Elbow_L/Hand_L/Finger_01/Finger_02/Finger_03/Finger_04
    m_Weight: 1
  - m_Path: Root/Hips/Spine_01/Spine_02/Spine_03/Clavicle_L/Shoulder_L/Elbow_L/Hand_L/IndexFinger_01
    m_Weight: 1
  - m_Path: Root/Hips/Spine_01/Spine_02/Spine_03/Clavicle_L/Shoulder_L/Elbow_L/Hand_L/IndexFinger_01/IndexFinger_02
    m_Weight: 1
  - m_Path: Root/Hips/Spine_01/Spine_02/Spine_03/Clavicle_L/Shoulder_L/Elbow_L/Hand_L/IndexFinger_01/IndexFinger_02/IndexFinger_03
    m_Weight: 1
  - m_Path: Root/Hips/Spine_01/Spine_02/Spine_03/Clavicle_L/Shoulder_L/Elbow_L/Hand_L/IndexFinger_01/IndexFinger_02/IndexFinger_03/IndexFinger_04
    m_Weight: 1
  - m_Path: Root/Hips/Spine_01/Spine_02/Spine_03/Clavicle_L/Shoulder_L/Elbow_L/Hand_L/Thumb_01
    m_Weight: 1
  - m_Path: Root/Hips/Spine_01/Spine_02/Spine_03/Clavicle_L/Shoulder_L/Elbow_L/Hand_L/Thumb_01/Thumb_02
    m_Weight: 1
  - m_Path: Root/Hips/Spine_01/Spine_02/Spine_03/Clavicle_L/Shoulder_L/Elbow_L/Hand_L/Thumb_01/Thumb_02/Thumb_03
    m_Weight: 1
  - m_Path: Root/Hips/Spine_01/Spine_02/Spine_03/Clavicle_R
    m_Weight: 1
  - m_Path: Root/Hips/Spine_01/Spine_02/Spine_03/Clavicle_R/Shoulder_R
    m_Weight: 1
  - m_Path: Root/Hips/Spine_01/Spine_02/Spine_03/Clavicle_R/Shoulder_R/Elbow_R
    m_Weight: 1
  - m_Path: Root/Hips/Spine_01/Spine_02/Spine_03/Clavicle_R/Shoulder_R/Elbow_R/Hand_R
    m_Weight: 1
  - m_Path: Root/Hips/Spine_01/Spine_02/Spine_03/Clavicle_R/Shoulder_R/Elbow_R/Hand_R/Finger_01
      1
    m_Weight: 1
  - m_Path: Root/Hips/Spine_01/Spine_02/Spine_03/Clavicle_R/Shoulder_R/Elbow_R/Hand_R/Finger_01
      1/Finger_02 1
    m_Weight: 1
  - m_Path: Root/Hips/Spine_01/Spine_02/Spine_03/Clavicle_R/Shoulder_R/Elbow_R/Hand_R/Finger_01
      1/Finger_02 1/Finger_03 1
    m_Weight: 1
  - m_Path: Root/Hips/Spine_01/Spine_02/Spine_03/Clavicle_R/Shoulder_R/Elbow_R/Hand_R/Finger_01
      1/Finger_02 1/Finger_03 1/Finger_04 1
    m_Weight: 1
  - m_Path: Root/Hips/Spine_01/Spine_02/Spine_03/Clavicle_R/Shoulder_R/Elbow_R/Hand_R/IndexFinger_01
      1
    m_Weight: 1
  - m_Path: Root/Hips/Spine_01/Spine_02/Spine_03/Clavicle_R/Shoulder_R/Elbow_R/Hand_R/IndexFinger_01
      1/IndexFinger_02 1
    m_Weight: 1
  - m_Path: Root/Hips/Spine_01/Spine_02/Spine_03/Clavicle_R/Shoulder_R/Elbow_R/Hand_R/IndexFinger_01
      1/IndexFinger_02 1/IndexFinger_03 1
    m_Weight: 1
  - m_Path: Root/Hips/Spine_01/Spine_02/Spine_03/Clavicle_R/Shoulder_R/Elbow_R/Hand_R/IndexFinger_01
      1/IndexFinger_02 1/IndexFinger_03 1/IndexFinger_04 1
    m_Weight: 1
  - m_Path: Root/Hips/Spine_01/Spine_02/Spine_03/Clavicle_R/Shoulder_R/Elbow_R/Hand_R/Thumb_01
      1
    m_Weight: 1
  - m_Path: Root/Hips/Spine_01/Spine_02/Spine_03/Clavicle_R/Shoulder_R/Elbow_R/Hand_R/Thumb_01
      1/Thumb_02 1
    m_Weight: 1
  - m_Path: Root/Hips/Spine_01/Spine_02/Spine_03/Clavicle_R/Shoulder_R/Elbow_R/Hand_R/Thumb_01
      1/Thumb_02 1/Thumb_03 1
    m_Weight: 1
  - m_Path: Root/Hips/Spine_01/Spine_02/Spine_03/Neck
    m_Weight: 1
  - m_Path: Root/Hips/Spine_01/Spine_02/Spine_03/Neck/Head
    m_Weight: 1
  - m_Path: Root/Hips/Spine_01/Spine_02/Spine_03/Neck/Head/Eyebrows
    m_Weight: 1
  - m_Path: Root/Hips/Spine_01/Spine_02/Spine_03/Neck/Head/Eyes
    m_Weight: 1
  - m_Path: Root/Hips/Spine_01/Spine_02/Spine_03/Neck/Head/SM_Item_Goblin_Hair
    m_Weight: 1
  - m_Path: Root/Hips/Spine_01/Spine_02/Spine_03/Neck/Head/SM_Item_Mask_01
    m_Weight: 1
  - m_Path: Root/Hips/Spine_01/Spine_02/Spine_03/Neck/Head/SM_Item_Mask_02
    m_Weight: 1
  - m_Path: Root/Hips/UpperLeg_L
    m_Weight: 1
  - m_Path: Root/Hips/UpperLeg_L/LowerLeg_L
    m_Weight: 1
  - m_Path: Root/Hips/UpperLeg_L/LowerLeg_L/Ankle_L
    m_Weight: 1
  - m_Path: Root/Hips/UpperLeg_L/LowerLeg_L/Ankle_L/Ball_L
    m_Weight: 1
  - m_Path: Root/Hips/UpperLeg_L/LowerLeg_L/Ankle_L/Ball_L/Toes_L
    m_Weight: 1
  - m_Path: Root/Hips/UpperLeg_R
    m_Weight: 1
  - m_Path: Root/Hips/UpperLeg_R/LowerLeg_R
    m_Weight: 1
  - m_Path: Root/Hips/UpperLeg_R/LowerLeg_R/Ankle_R
    m_Weight: 1
  - m_Path: Root/Hips/UpperLeg_R/LowerLeg_R/Ankle_R/Ball_R
    m_Weight: 1
  - m_Path: Root/Hips/UpperLeg_R/LowerLeg_R/Ankle_R/Ball_R/Toes_R
    m_Weight: 1
