%YAML 1.1
%TAG !u! tag:unity3d.com,2011:
--- !u!114 &11400000
MonoBehaviour:
  m_ObjectHideFlags: 0
  m_CorrespondingSourceObject: {fileID: 0}
  m_PrefabInstance: {fileID: 0}
  m_PrefabAsset: {fileID: 0}
  m_GameObject: {fileID: 0}
  m_Enabled: 1
  m_EditorHideFlags: 0
  m_Script: {fileID: 11500000, guid: 2c0d00339f58d4376918ded2a84e3ffd, type: 3}
  m_Name: StateSwordMotion
  m_EditorClassIdentifier: 
  type: 1
  rtcSimple: {fileID: 221161001172850442}
  rtcLocomotion: {fileID: 221793186460999426}
  rtcOther: {fileID: 0}
  enterClip: {fileID: 0}
  enterAvatarMask: {fileID: 0}
  exitClip: {fileID: 0}
  exitAvatarMask: {fileID: 0}
--- !u!221 &221161001172850442
AnimatorOverrideController:
  m_ObjectHideFlags: 1
  m_CorrespondingSourceObject: {fileID: 0}
  m_PrefabInstance: {fileID: 0}
  m_PrefabAsset: {fileID: 0}
  m_Name: Simple
  m_Controller: {fileID: 9100000, guid: 7e5e3872d84174d9a9ddf67745628fb5, type: 2}
  m_Clips: []
--- !u!221 &221793186460999426
AnimatorOverrideController:
  m_ObjectHideFlags: 1
  m_CorrespondingSourceObject: {fileID: 0}
  m_PrefabInstance: {fileID: 0}
  m_PrefabAsset: {fileID: 0}
  m_Name: Locomotion
  m_Controller: {fileID: 9100000, guid: 3f1e2f14ae32849fab8d6425e1c058cb, type: 2}
  m_Clips:
  - m_OriginalClip: {fileID: 74822647580234304, guid: 7adf3f4052f80468ab57a887ef72a785,
      type: 2}
    m_OverrideClip: {fileID: 74007647543371762, guid: de689bb0823a14c75a550f23c42403d8,
      type: 2}
