%YAML 1.1
%TAG !u! tag:unity3d.com,2011:
--- !u!114 &11400000
MonoBehaviour:
  m_ObjectHideFlags: 0
  m_CorrespondingSourceObject: {fileID: 0}
  m_PrefabInstance: {fileID: 0}
  m_PrefabAsset: {fileID: 0}
  m_GameObject: {fileID: 0}
  m_Enabled: 1
  m_EditorHideFlags: 0
  m_Script: {fileID: 11500000, guid: af074dba030af45af95ab60f307eb78c, type: 3}
  m_Name: Attack04
  m_EditorClassIdentifier: 
  affectedBones: 12000000
  animationClip: {fileID: 74727638662924100, guid: d3ef6324613b544c69284199c7e11443, type: 2}
  avatarMask: {fileID: 0}
  transitionIn: 0.25
  transitionOut: 0.25
  movementForward:
    serializedVersion: 2
    m_Curve:
    - serializedVersion: 3
      time: 0
      value: 0
      inSlope: 0.47538754
      outSlope: 0.47538754
      tangentMode: 0
      weightedMode: 3
      inWeight: 0.33333334
      outWeight: 0.33333334
    - serializedVersion: 3
      time: 0.016666668
      value: 0.007923126
      inSlope: 0.47538754
      outSlope: 1.293125
      tangentMode: 0
      weightedMode: 3
      inWeight: 0.33333334
      outWeight: 0.33333334
    - serializedVersion: 3
      time: 0.033333335
      value: 0.029475212
      inSlope: 1.293125
      outSlope: 1.9774176
      tangentMode: 0
      weightedMode: 3
      inWeight: 0.33333334
      outWeight: 0.33333334
    - serializedVersion: 3
      time: 0.05
      value: 0.06243217
      inSlope: 1.9774176
      outSlope: 2.5145097
      tangentMode: 0
      weightedMode: 3
      inWeight: 0.33333334
      outWeight: 0.33333334
    - serializedVersion: 3
      time: 0.06666667
      value: 0.10434067
      inSlope: 2.5145097
      outSlope: 2.8975227
      tangentMode: 0
      weightedMode: 3
      inWeight: 0.33333334
      outWeight: 0.33333334
    - serializedVersion: 3
      time: 0.083333336
      value: 0.15263271
      inSlope: 2.8975227
      outSlope: 3.1063488
      tangentMode: 0
      weightedMode: 3
      inWeight: 0.33333334
      outWeight: 0.33333334
    - serializedVersion: 3
      time: 0.1
      value: 0.20440519
      inSlope: 3.1063488
      outSlope: 3.107014
      tangentMode: 0
      weightedMode: 3
      inWeight: 0.33333334
      outWeight: 0.33333334
    - serializedVersion: 3
      time: 0.11666667
      value: 0.25618875
      inSlope: 3.107014
      outSlope: 2.9197586
      tangentMode: 0
      weightedMode: 3
      inWeight: 0.33333334
      outWeight: 0.33333334
    - serializedVersion: 3
      time: 0.13333334
      value: 0.3048514
      inSlope: 2.9197586
      outSlope: 2.659972
      tangentMode: 0
      weightedMode: 3
      inWeight: 0.33333334
      outWeight: 0.33333334
    - serializedVersion: 3
      time: 0.15
      value: 0.34918427
      inSlope: 2.659972
      outSlope: 2.4893262
      tangentMode: 0
      weightedMode: 3
      inWeight: 0.33333334
      outWeight: 0.33333334
    - serializedVersion: 3
      time: 0.16666667
      value: 0.39067304
      inSlope: 2.4893262
      outSlope: 2.4212768
      tangentMode: 0
      weightedMode: 3
      inWeight: 0.33333334
      outWeight: 0.33333334
    - serializedVersion: 3
      time: 0.18333334
      value: 0.43102765
      inSlope: 2.4212768
      outSlope: 2.2388794
      tangentMode: 0
      weightedMode: 3
      inWeight: 0.33333334
      outWeight: 0.33333334
    - serializedVersion: 3
      time: 0.2
      value: 0.4683423
      inSlope: 2.2388794
      outSlope: 1.9098331
      tangentMode: 0
      weightedMode: 3
      inWeight: 0.33333334
      outWeight: 0.33333334
    - serializedVersion: 3
      time: 0.21666667
      value: 0.50017285
      inSlope: 1.9098331
      outSlope: 1.5254976
      tangentMode: 0
      weightedMode: 3
      inWeight: 0.33333334
      outWeight: 0.33333334
    - serializedVersion: 3
      time: 0.23333333
      value: 0.5255978
      inSlope: 1.5254976
      outSlope: 1.1144687
      tangentMode: 0
      weightedMode: 3
      inWeight: 0.33333334
      outWeight: 0.33333334
    - serializedVersion: 3
      time: 0.25
      value: 0.5441723
      inSlope: 1.1144687
      outSlope: 1.115376
      tangentMode: 0
      weightedMode: 3
      inWeight: 0.33333334
      outWeight: 0.33333334
    - serializedVersion: 3
      time: 0.26666668
      value: 0.5627619
      inSlope: 1.115376
      outSlope: 1.0441313
      tangentMode: 0
      weightedMode: 3
      inWeight: 0.33333334
      outWeight: 0.33333334
    - serializedVersion: 3
      time: 0.28333333
      value: 0.5801641
      inSlope: 1.0441313
      outSlope: 1.015462
      tangentMode: 0
      weightedMode: 3
      inWeight: 0.33333334
      outWeight: 0.33333334
    - serializedVersion: 3
      time: 0.3
      value: 0.59708846
      inSlope: 1.015462
      outSlope: 1.040276
      tangentMode: 0
      weightedMode: 3
      inWeight: 0.33333334
      outWeight: 0.33333334
    - serializedVersion: 3
      time: 0.31666666
      value: 0.6144264
      inSlope: 1.040276
      outSlope: 1.0363833
      tangentMode: 0
      weightedMode: 3
      inWeight: 0.33333334
      outWeight: 0.33333334
    - serializedVersion: 3
      time: 0.33333334
      value: 0.63169944
      inSlope: 1.0363833
      outSlope: 1.1322151
      tangentMode: 0
      weightedMode: 3
      inWeight: 0.33333334
      outWeight: 0.33333334
    - serializedVersion: 3
      time: 0.35
      value: 0.6505697
      inSlope: 1.1322151
      outSlope: 1.31014
      tangentMode: 0
      weightedMode: 3
      inWeight: 0.33333334
      outWeight: 0.33333334
    - serializedVersion: 3
      time: 0.36666667
      value: 0.67240536
      inSlope: 1.31014
      outSlope: 1.5414276
      tangentMode: 0
      weightedMode: 3
      inWeight: 0.33333334
      outWeight: 0.33333334
    - serializedVersion: 3
      time: 0.38333333
      value: 0.6980958
      inSlope: 1.5414276
      outSlope: 1.7846475
      tangentMode: 0
      weightedMode: 3
      inWeight: 0.33333334
      outWeight: 0.33333334
    - serializedVersion: 3
      time: 0.4
      value: 0.72783995
      inSlope: 1.7846475
      outSlope: 1.9951148
      tangentMode: 0
      weightedMode: 3
      inWeight: 0.33333334
      outWeight: 0.33333334
    - serializedVersion: 3
      time: 0.41666666
      value: 0.7610918
      inSlope: 1.9951148
      outSlope: 2.1463447
      tangentMode: 0
      weightedMode: 3
      inWeight: 0.33333334
      outWeight: 0.33333334
    - serializedVersion: 3
      time: 0.43333334
      value: 0.7968643
      inSlope: 2.1463447
      outSlope: 2.3972964
      tangentMode: 0
      weightedMode: 3
      inWeight: 0.33333334
      outWeight: 0.33333334
    - serializedVersion: 3
      time: 0.45
      value: 0.8368192
      inSlope: 2.3972964
      outSlope: 2.6345994
      tangentMode: 0
      weightedMode: 3
      inWeight: 0.33333334
      outWeight: 0.33333334
    - serializedVersion: 3
      time: 0.46666667
      value: 0.8807292
      inSlope: 2.6345994
      outSlope: 2.880402
      tangentMode: 0
      weightedMode: 3
      inWeight: 0.33333334
      outWeight: 0.33333334
    - serializedVersion: 3
      time: 0.48333332
      value: 0.92873585
      inSlope: 2.880402
      outSlope: 3.1346915
      tangentMode: 0
      weightedMode: 3
      inWeight: 0.33333334
      outWeight: 0.33333334
    - serializedVersion: 3
      time: 0.5
      value: 0.98098075
      inSlope: 3.1346915
      outSlope: 3.1393464
      tangentMode: 0
      weightedMode: 3
      inWeight: 0.33333334
      outWeight: 0.33333334
    - serializedVersion: 3
      time: 0.51666665
      value: 1.0333031
      inSlope: 3.1393464
      outSlope: 3.1398213
      tangentMode: 0
      weightedMode: 3
      inWeight: 0.33333334
      outWeight: 0.33333334
    - serializedVersion: 3
      time: 0.53333336
      value: 1.0856336
      inSlope: 3.1398213
      outSlope: 3.0140762
      tangentMode: 0
      weightedMode: 3
      inWeight: 0.33333334
      outWeight: 0.33333334
    - serializedVersion: 3
      time: 0.55
      value: 1.1358682
      inSlope: 3.0140762
      outSlope: 2.8431728
      tangentMode: 0
      weightedMode: 3
      inWeight: 0.33333334
      outWeight: 0.33333334
    - serializedVersion: 3
      time: 0.56666666
      value: 1.1832544
      inSlope: 2.8431728
      outSlope: 2.703183
      tangentMode: 0
      weightedMode: 3
      inWeight: 0.33333334
      outWeight: 0.33333334
    - serializedVersion: 3
      time: 0.5833333
      value: 1.2283074
      inSlope: 2.703183
      outSlope: 3.1885445
      tangentMode: 0
      weightedMode: 3
      inWeight: 0.33333334
      outWeight: 0.33333334
    - serializedVersion: 3
      time: 0.6
      value: 1.2814499
      inSlope: 3.1885445
      outSlope: 3.4123454
      tangentMode: 0
      weightedMode: 3
      inWeight: 0.33333334
      outWeight: 0.33333334
    - serializedVersion: 3
      time: 0.6166667
      value: 1.3383223
      inSlope: 3.4123454
      outSlope: 2.3188326
      tangentMode: 0
      weightedMode: 3
      inWeight: 0.33333334
      outWeight: 0.33333334
    - serializedVersion: 3
      time: 0.6333333
      value: 1.3769695
      inSlope: 2.3188326
      outSlope: 1.0315857
      tangentMode: 0
      weightedMode: 3
      inWeight: 0.33333334
      outWeight: 0.33333334
    - serializedVersion: 3
      time: 0.65
      value: 1.3941625
      inSlope: 1.0315857
      outSlope: 0.6726533
      tangentMode: 0
      weightedMode: 3
      inWeight: 0.33333334
      outWeight: 0.33333334
    - serializedVersion: 3
      time: 0.6666667
      value: 1.4053735
      inSlope: 0.6726533
      outSlope: 0.4973178
      tangentMode: 0
      weightedMode: 3
      inWeight: 0.33333334
      outWeight: 0.33333334
    - serializedVersion: 3
      time: 0.68333334
      value: 1.4136621
      inSlope: 0.4973178
      outSlope: 0.4571776
      tangentMode: 0
      weightedMode: 3
      inWeight: 0.33333334
      outWeight: 0.33333334
    - serializedVersion: 3
      time: 0.7
      value: 1.4212817
      inSlope: 0.4571776
      outSlope: 0.4184536
      tangentMode: 0
      weightedMode: 3
      inWeight: 0.33333334
      outWeight: 0.33333334
    - serializedVersion: 3
      time: 0.71666664
      value: 1.4282559
      inSlope: 0.4184536
      outSlope: 0.38101572
      tangentMode: 0
      weightedMode: 3
      inWeight: 0.33333334
      outWeight: 0.33333334
    - serializedVersion: 3
      time: 0.73333335
      value: 1.4346062
      inSlope: 0.38101572
      outSlope: 0.34483942
      tangentMode: 0
      weightedMode: 3
      inWeight: 0.33333334
      outWeight: 0.33333334
    - serializedVersion: 3
      time: 0.75
      value: 1.4403535
      inSlope: 0.34483942
      outSlope: 0.309892
      tangentMode: 0
      weightedMode: 3
      inWeight: 0.33333334
      outWeight: 0.33333334
    - serializedVersion: 3
      time: 0.76666665
      value: 1.4455184
      inSlope: 0.309892
      outSlope: 0.2760737
      tangentMode: 0
      weightedMode: 3
      inWeight: 0.33333334
      outWeight: 0.33333334
    - serializedVersion: 3
      time: 0.78333336
      value: 1.4501196
      inSlope: 0.2760737
      outSlope: 0.24344468
      tangentMode: 0
      weightedMode: 3
      inWeight: 0.33333334
      outWeight: 0.33333334
    - serializedVersion: 3
      time: 0.8
      value: 1.454177
      inSlope: 0.24344468
      outSlope: 0.2119591
      tangentMode: 0
      weightedMode: 3
      inWeight: 0.33333334
      outWeight: 0.33333334
    - serializedVersion: 3
      time: 0.81666666
      value: 1.4577097
      inSlope: 0.2119591
      outSlope: 0.18227595
      tangentMode: 0
      weightedMode: 3
      inWeight: 0.33333334
      outWeight: 0.33333334
    - serializedVersion: 3
      time: 0.8333333
      value: 1.4607476
      inSlope: 0.18227595
      outSlope: 0.15263517
      tangentMode: 0
      weightedMode: 3
      inWeight: 0.33333334
      outWeight: 0.33333334
    - serializedVersion: 3
      time: 0.85
      value: 1.4632915
      inSlope: 0.15263517
      outSlope: 0.124812245
      tangentMode: 0
      weightedMode: 3
      inWeight: 0.33333334
      outWeight: 0.33333334
    - serializedVersion: 3
      time: 0.8666667
      value: 1.4653717
      inSlope: 0.124812245
      outSlope: 0.098276235
      tangentMode: 0
      weightedMode: 3
      inWeight: 0.33333334
      outWeight: 0.33333334
    - serializedVersion: 3
      time: 0.8833333
      value: 1.4670097
      inSlope: 0.098276235
      outSlope: 0.073242255
      tangentMode: 0
      weightedMode: 3
      inWeight: 0.33333334
      outWeight: 0.33333334
    - serializedVersion: 3
      time: 0.9
      value: 1.4682304
      inSlope: 0.073242255
      outSlope: 0.049595702
      tangentMode: 0
      weightedMode: 3
      inWeight: 0.33333334
      outWeight: 0.33333334
    - serializedVersion: 3
      time: 0.9166667
      value: 1.469057
      inSlope: 0.049595702
      outSlope: 0.027451541
      tangentMode: 0
      weightedMode: 3
      inWeight: 0.33333334
      outWeight: 0.33333334
    - serializedVersion: 3
      time: 0.93333334
      value: 1.4695145
      inSlope: 0.027451541
      outSlope: 0.0068664616
      tangentMode: 0
      weightedMode: 3
      inWeight: 0.33333334
      outWeight: 0.33333334
    - serializedVersion: 3
      time: 0.95
      value: 1.4696289
      inSlope: 0.0068664616
      outSlope: -0.0121307485
      tangentMode: 0
      weightedMode: 3
      inWeight: 0.33333334
      outWeight: 0.33333334
    - serializedVersion: 3
      time: 0.96666664
      value: 1.4694268
      inSlope: -0.0121307485
      outSlope: -0.029654425
      tangentMode: 0
      weightedMode: 3
      inWeight: 0.33333334
      outWeight: 0.33333334
    - serializedVersion: 3
      time: 0.98333335
      value: 1.4689325
      inSlope: -0.029654425
      outSlope: -0.045805022
      tangentMode: 0
      weightedMode: 3
      inWeight: 0.33333334
      outWeight: 0.33333334
    - serializedVersion: 3
      time: 1
      value: 1.4681691
      inSlope: -0.045805022
      outSlope: -0.045805022
      tangentMode: 0
      weightedMode: 3
      inWeight: 0.33333334
      outWeight: 0.33333334
    m_PreInfinity: 2
    m_PostInfinity: 2
    m_RotationOrder: 4
  movementSides:
    serializedVersion: 2
    m_Curve:
    - serializedVersion: 3
      time: 0
      value: 0
      inSlope: 0.3931251
      outSlope: 0.3931251
      tangentMode: 0
      weightedMode: 3
      inWeight: 0.33333334
      outWeight: 0.33333334
    - serializedVersion: 3
      time: 0.016666668
      value: 0.0065520853
      inSlope: 0.3931251
      outSlope: 1.0318824
      tangentMode: 0
      weightedMode: 3
      inWeight: 0.33333334
      outWeight: 0.33333334
    - serializedVersion: 3
      time: 0.033333335
      value: 0.023750126
      inSlope: 1.0318824
      outSlope: 1.626404
      tangentMode: 0
      weightedMode: 3
      inWeight: 0.33333334
      outWeight: 0.33333334
    - serializedVersion: 3
      time: 0.05
      value: 0.05085686
      inSlope: 1.626404
      outSlope: 2.1375396
      tangentMode: 0
      weightedMode: 3
      inWeight: 0.33333334
      outWeight: 0.33333334
    - serializedVersion: 3
      time: 0.06666667
      value: 0.086482525
      inSlope: 2.1375396
      outSlope: 2.515806
      tangentMode: 0
      weightedMode: 3
      inWeight: 0.33333334
      outWeight: 0.33333334
    - serializedVersion: 3
      time: 0.083333336
      value: 0.12841262
      inSlope: 2.515806
      outSlope: 2.7769573
      tangentMode: 0
      weightedMode: 3
      inWeight: 0.33333334
      outWeight: 0.33333334
    - serializedVersion: 3
      time: 0.1
      value: 0.17469524
      inSlope: 2.7769573
      outSlope: 2.9553804
      tangentMode: 0
      weightedMode: 3
      inWeight: 0.33333334
      outWeight: 0.33333334
    - serializedVersion: 3
      time: 0.11666667
      value: 0.22395158
      inSlope: 2.9553804
      outSlope: 3.0109491
      tangentMode: 0
      weightedMode: 3
      inWeight: 0.33333334
      outWeight: 0.33333334
    - serializedVersion: 3
      time: 0.13333334
      value: 0.2741341
      inSlope: 3.0109491
      outSlope: 2.8171484
      tangentMode: 0
      weightedMode: 3
      inWeight: 0.33333334
      outWeight: 0.33333334
    - serializedVersion: 3
      time: 0.15
      value: 0.32108656
      inSlope: 2.8171484
      outSlope: 2.3962195
      tangentMode: 0
      weightedMode: 3
      inWeight: 0.33333334
      outWeight: 0.33333334
    - serializedVersion: 3
      time: 0.16666667
      value: 0.36102355
      inSlope: 2.3962195
      outSlope: 1.9291315
      tangentMode: 0
      weightedMode: 3
      inWeight: 0.33333334
      outWeight: 0.33333334
    - serializedVersion: 3
      time: 0.18333334
      value: 0.39317572
      inSlope: 1.9291315
      outSlope: 1.5695313
      tangentMode: 0
      weightedMode: 3
      inWeight: 0.33333334
      outWeight: 0.33333334
    - serializedVersion: 3
      time: 0.2
      value: 0.4193346
      inSlope: 1.5695313
      outSlope: 1.2426076
      tangentMode: 0
      weightedMode: 3
      inWeight: 0.33333334
      outWeight: 0.33333334
    - serializedVersion: 3
      time: 0.21666667
      value: 0.4400447
      inSlope: 1.2426076
      outSlope: 0.83377725
      tangentMode: 0
      weightedMode: 3
      inWeight: 0.33333334
      outWeight: 0.33333334
    - serializedVersion: 3
      time: 0.23333333
      value: 0.453941
      inSlope: 0.83377725
      outSlope: 0.3422821
      tangentMode: 0
      weightedMode: 3
      inWeight: 0.33333334
      outWeight: 0.33333334
    - serializedVersion: 3
      time: 0.25
      value: 0.4596457
      inSlope: 0.3422821
      outSlope: -0.38587657
      tangentMode: 0
      weightedMode: 3
      inWeight: 0.33333334
      outWeight: 0.33333334
    - serializedVersion: 3
      time: 0.26666668
      value: 0.4532144
      inSlope: -0.38587657
      outSlope: -1.2823135
      tangentMode: 0
      weightedMode: 3
      inWeight: 0.33333334
      outWeight: 0.33333334
    - serializedVersion: 3
      time: 0.28333333
      value: 0.43184257
      inSlope: -1.2823135
      outSlope: -2.0187933
      tangentMode: 0
      weightedMode: 3
      inWeight: 0.33333334
      outWeight: 0.33333334
    - serializedVersion: 3
      time: 0.3
      value: 0.39819598
      inSlope: -2.0187933
      outSlope: -2.582453
      tangentMode: 0
      weightedMode: 3
      inWeight: 0.33333334
      outWeight: 0.33333334
    - serializedVersion: 3
      time: 0.31666666
      value: 0.3551551
      inSlope: -2.582453
      outSlope: -3.027793
      tangentMode: 0
      weightedMode: 3
      inWeight: 0.33333334
      outWeight: 0.33333334
    - serializedVersion: 3
      time: 0.33333334
      value: 0.30469185
      inSlope: -3.027793
      outSlope: -3.2835445
      tangentMode: 0
      weightedMode: 3
      inWeight: 0.33333334
      outWeight: 0.33333334
    - serializedVersion: 3
      time: 0.35
      value: 0.24996617
      inSlope: -3.2835445
      outSlope: -3.3145282
      tangentMode: 0
      weightedMode: 3
      inWeight: 0.33333334
      outWeight: 0.33333334
    - serializedVersion: 3
      time: 0.36666667
      value: 0.194724
      inSlope: -3.3145282
      outSlope: -3.0816407
      tangentMode: 0
      weightedMode: 3
      inWeight: 0.33333334
      outWeight: 0.33333334
    - serializedVersion: 3
      time: 0.38333333
      value: 0.14336336
      inSlope: -3.0816407
      outSlope: -2.5614035
      tangentMode: 0
      weightedMode: 3
      inWeight: 0.33333334
      outWeight: 0.33333334
    - serializedVersion: 3
      time: 0.4
      value: 0.100673266
      inSlope: -2.5614035
      outSlope: -1.7532432
      tangentMode: 0
      weightedMode: 3
      inWeight: 0.33333334
      outWeight: 0.33333334
    - serializedVersion: 3
      time: 0.41666666
      value: 0.07145257
      inSlope: -1.7532432
      outSlope: -0.98236316
      tangentMode: 0
      weightedMode: 3
      inWeight: 0.33333334
      outWeight: 0.33333334
    - serializedVersion: 3
      time: 0.43333334
      value: 0.05507984
      inSlope: -0.98236316
      outSlope: -0.59123766
      tangentMode: 0
      weightedMode: 3
      inWeight: 0.33333334
      outWeight: 0.33333334
    - serializedVersion: 3
      time: 0.45
      value: 0.04522589
      inSlope: -0.59123766
      outSlope: -0.22008401
      tangentMode: 0
      weightedMode: 3
      inWeight: 0.33333334
      outWeight: 0.33333334
    - serializedVersion: 3
      time: 0.46666667
      value: 0.04155782
      inSlope: -0.22008401
      outSlope: 0.1264028
      tangentMode: 0
      weightedMode: 3
      inWeight: 0.33333334
      outWeight: 0.33333334
    - serializedVersion: 3
      time: 0.48333332
      value: 0.04366453
      inSlope: 0.1264028
      outSlope: 0.44729373
      tangentMode: 0
      weightedMode: 3
      inWeight: 0.33333334
      outWeight: 0.33333334
    - serializedVersion: 3
      time: 0.5
      value: 0.05111943
      inSlope: 0.44729373
      outSlope: 0.9701756
      tangentMode: 0
      weightedMode: 3
      inWeight: 0.33333334
      outWeight: 0.33333334
    - serializedVersion: 3
      time: 0.51666665
      value: 0.06728901
      inSlope: 0.9701756
      outSlope: 1.1479328
      tangentMode: 0
      weightedMode: 3
      inWeight: 0.33333334
      outWeight: 0.33333334
    - serializedVersion: 3
      time: 0.53333336
      value: 0.08642127
      inSlope: 1.1479328
      outSlope: 1.241716
      tangentMode: 0
      weightedMode: 3
      inWeight: 0.33333334
      outWeight: 0.33333334
    - serializedVersion: 3
      time: 0.55
      value: 0.10711652
      inSlope: 1.241716
      outSlope: 1.1962703
      tangentMode: 0
      weightedMode: 3
      inWeight: 0.33333334
      outWeight: 0.33333334
    - serializedVersion: 3
      time: 0.56666666
      value: 0.12705433
      inSlope: 1.1962703
      outSlope: 0.933942
      tangentMode: 0
      weightedMode: 3
      inWeight: 0.33333334
      outWeight: 0.33333334
    - serializedVersion: 3
      time: 0.5833333
      value: 0.14262003
      inSlope: 0.933942
      outSlope: 1.1748751
      tangentMode: 0
      weightedMode: 3
      inWeight: 0.33333334
      outWeight: 0.33333334
    - serializedVersion: 3
      time: 0.6
      value: 0.16220133
      inSlope: 1.1748751
      outSlope: 2.0040116
      tangentMode: 0
      weightedMode: 3
      inWeight: 0.33333334
      outWeight: 0.33333334
    - serializedVersion: 3
      time: 0.6166667
      value: 0.1956015
      inSlope: 2.0040116
      outSlope: 2.7196507
      tangentMode: 0
      weightedMode: 3
      inWeight: 0.33333334
      outWeight: 0.33333334
    - serializedVersion: 3
      time: 0.6333333
      value: 0.24092896
      inSlope: 2.7196507
      outSlope: 1.4806046
      tangentMode: 0
      weightedMode: 3
      inWeight: 0.33333334
      outWeight: 0.33333334
    - serializedVersion: 3
      time: 0.65
      value: 0.2656057
      inSlope: 1.4806046
      outSlope: 0.3097568
      tangentMode: 0
      weightedMode: 3
      inWeight: 0.33333334
      outWeight: 0.33333334
    - serializedVersion: 3
      time: 0.6666667
      value: 0.2707683
      inSlope: 0.3097568
      outSlope: 0.10328124
      tangentMode: 0
      weightedMode: 3
      inWeight: 0.33333334
      outWeight: 0.33333334
    - serializedVersion: 3
      time: 0.68333334
      value: 0.27248967
      inSlope: 0.10328124
      outSlope: 0.09786809
      tangentMode: 0
      weightedMode: 3
      inWeight: 0.33333334
      outWeight: 0.33333334
    - serializedVersion: 3
      time: 0.7
      value: 0.2741208
      inSlope: 0.09786809
      outSlope: 0.09290823
      tangentMode: 0
      weightedMode: 3
      inWeight: 0.33333334
      outWeight: 0.33333334
    - serializedVersion: 3
      time: 0.71666664
      value: 0.27566928
      inSlope: 0.09290823
      outSlope: 0.088324465
      tangentMode: 0
      weightedMode: 3
      inWeight: 0.33333334
      outWeight: 0.33333334
    - serializedVersion: 3
      time: 0.73333335
      value: 0.27714133
      inSlope: 0.088324465
      outSlope: 0.08402654
      tangentMode: 0
      weightedMode: 3
      inWeight: 0.33333334
      outWeight: 0.33333334
    - serializedVersion: 3
      time: 0.75
      value: 0.27854177
      inSlope: 0.08402654
      outSlope: 0.07996835
      tangentMode: 0
      weightedMode: 3
      inWeight: 0.33333334
      outWeight: 0.33333334
    - serializedVersion: 3
      time: 0.76666665
      value: 0.2798746
      inSlope: 0.07996835
      outSlope: 0.076098986
      tangentMode: 0
      weightedMode: 3
      inWeight: 0.33333334
      outWeight: 0.33333334
    - serializedVersion: 3
      time: 0.78333336
      value: 0.2811429
      inSlope: 0.076098986
      outSlope: 0.0725042
      tangentMode: 0
      weightedMode: 3
      inWeight: 0.33333334
      outWeight: 0.33333334
    - serializedVersion: 3
      time: 0.8
      value: 0.28235132
      inSlope: 0.0725042
      outSlope: 0.06874553
      tangentMode: 0
      weightedMode: 3
      inWeight: 0.33333334
      outWeight: 0.33333334
    - serializedVersion: 3
      time: 0.81666666
      value: 0.28349707
      inSlope: 0.06874553
      outSlope: 0.066364616
      tangentMode: 0
      weightedMode: 3
      inWeight: 0.33333334
      outWeight: 0.33333334
    - serializedVersion: 3
      time: 0.8333333
      value: 0.28460315
      inSlope: 0.066364616
      outSlope: 0.06187348
      tangentMode: 0
      weightedMode: 3
      inWeight: 0.33333334
      outWeight: 0.33333334
    - serializedVersion: 3
      time: 0.85
      value: 0.28563437
      inSlope: 0.06187348
      outSlope: 0.058486965
      tangentMode: 0
      weightedMode: 3
      inWeight: 0.33333334
      outWeight: 0.33333334
    - serializedVersion: 3
      time: 0.8666667
      value: 0.28660914
      inSlope: 0.058486965
      outSlope: 0.055245064
      tangentMode: 0
      weightedMode: 3
      inWeight: 0.33333334
      outWeight: 0.33333334
    - serializedVersion: 3
      time: 0.8833333
      value: 0.2875299
      inSlope: 0.055245064
      outSlope: 0.05172466
      tangentMode: 0
      weightedMode: 3
      inWeight: 0.33333334
      outWeight: 0.33333334
    - serializedVersion: 3
      time: 0.9
      value: 0.28839198
      inSlope: 0.05172466
      outSlope: 0.04833149
      tangentMode: 0
      weightedMode: 3
      inWeight: 0.33333334
      outWeight: 0.33333334
    - serializedVersion: 3
      time: 0.9166667
      value: 0.2891975
      inSlope: 0.04833149
      outSlope: 0.04487161
      tangentMode: 0
      weightedMode: 3
      inWeight: 0.33333334
      outWeight: 0.33333334
    - serializedVersion: 3
      time: 0.93333334
      value: 0.28994536
      inSlope: 0.04487161
      outSlope: 0.041319024
      tangentMode: 0
      weightedMode: 3
      inWeight: 0.33333334
      outWeight: 0.33333334
    - serializedVersion: 3
      time: 0.95
      value: 0.290634
      inSlope: 0.041319024
      outSlope: 0.037603714
      tangentMode: 0
      weightedMode: 3
      inWeight: 0.33333334
      outWeight: 0.33333334
    - serializedVersion: 3
      time: 0.96666664
      value: 0.29126075
      inSlope: 0.037603714
      outSlope: 0.033759087
      tangentMode: 0
      weightedMode: 3
      inWeight: 0.33333334
      outWeight: 0.33333334
    - serializedVersion: 3
      time: 0.98333335
      value: 0.2918234
      inSlope: 0.033759087
      outSlope: 0.029858826
      tangentMode: 0
      weightedMode: 3
      inWeight: 0.33333334
      outWeight: 0.33333334
    - serializedVersion: 3
      time: 1
      value: 0.29232103
      inSlope: 0.029858826
      outSlope: 0.029858826
      tangentMode: 0
      weightedMode: 3
      inWeight: 0.33333334
      outWeight: 0.33333334
    m_PreInfinity: 2
    m_PostInfinity: 2
    m_RotationOrder: 4
  movementVertical:
    serializedVersion: 2
    m_Curve:
    - serializedVersion: 3
      time: 0
      value: 0
      inSlope: 0.12078523
      outSlope: 0.12078523
      tangentMode: 0
      weightedMode: 3
      inWeight: 0.33333334
      outWeight: 0.33333334
    - serializedVersion: 3
      time: 0.016666668
      value: 0.0020130873
      inSlope: 0.12078523
      outSlope: 0.2991056
      tangentMode: 0
      weightedMode: 3
      inWeight: 0.33333334
      outWeight: 0.33333334
    - serializedVersion: 3
      time: 0.033333335
      value: 0.0069981813
      inSlope: 0.2991056
      outSlope: 0.44776085
      tangentMode: 0
      weightedMode: 3
      inWeight: 0.33333334
      outWeight: 0.33333334
    - serializedVersion: 3
      time: 0.05
      value: 0.014460862
      inSlope: 0.44776085
      outSlope: 0.5687927
      tangentMode: 0
      weightedMode: 3
      inWeight: 0.33333334
      outWeight: 0.33333334
    - serializedVersion: 3
      time: 0.06666667
      value: 0.023940742
      inSlope: 0.5687927
      outSlope: 0.6967986
      tangentMode: 0
      weightedMode: 3
      inWeight: 0.33333334
      outWeight: 0.33333334
    - serializedVersion: 3
      time: 0.083333336
      value: 0.03555405
      inSlope: 0.6967986
      outSlope: 0.8493162
      tangentMode: 0
      weightedMode: 3
      inWeight: 0.33333334
      outWeight: 0.33333334
    - serializedVersion: 3
      time: 0.1
      value: 0.04970932
      inSlope: 0.8493162
      outSlope: 0.9642578
      tangentMode: 0
      weightedMode: 3
      inWeight: 0.33333334
      outWeight: 0.33333334
    - serializedVersion: 3
      time: 0.11666667
      value: 0.06578028
      inSlope: 0.9642578
      outSlope: 0.9580239
      tangentMode: 0
      weightedMode: 3
      inWeight: 0.33333334
      outWeight: 0.33333334
    - serializedVersion: 3
      time: 0.13333334
      value: 0.08174735
      inSlope: 0.9580239
      outSlope: 0.8385051
      tangentMode: 0
      weightedMode: 3
      inWeight: 0.33333334
      outWeight: 0.33333334
    - serializedVersion: 3
      time: 0.15
      value: 0.09572244
      inSlope: 0.8385051
      outSlope: 0.72272307
      tangentMode: 0
      weightedMode: 3
      inWeight: 0.33333334
      outWeight: 0.33333334
    - serializedVersion: 3
      time: 0.16666667
      value: 0.10776782
      inSlope: 0.72272307
      outSlope: 0.71036345
      tangentMode: 0
      weightedMode: 3
      inWeight: 0.33333334
      outWeight: 0.33333334
    - serializedVersion: 3
      time: 0.18333334
      value: 0.11960721
      inSlope: 0.71036345
      outSlope: 0.7739282
      tangentMode: 0
      weightedMode: 3
      inWeight: 0.33333334
      outWeight: 0.33333334
    - serializedVersion: 3
      time: 0.2
      value: 0.13250601
      inSlope: 0.7739282
      outSlope: 0.8569229
      tangentMode: 0
      weightedMode: 3
      inWeight: 0.33333334
      outWeight: 0.33333334
    - serializedVersion: 3
      time: 0.21666667
      value: 0.14678806
      inSlope: 0.8569229
      outSlope: 0.9263099
      tangentMode: 0
      weightedMode: 3
      inWeight: 0.33333334
      outWeight: 0.33333334
    - serializedVersion: 3
      time: 0.23333333
      value: 0.16222656
      inSlope: 0.9263099
      outSlope: 0.9620941
      tangentMode: 0
      weightedMode: 3
      inWeight: 0.33333334
      outWeight: 0.33333334
    - serializedVersion: 3
      time: 0.25
      value: 0.17826146
      inSlope: 0.9620941
      outSlope: 1.1180832
      tangentMode: 0
      weightedMode: 3
      inWeight: 0.33333334
      outWeight: 0.33333334
    - serializedVersion: 3
      time: 0.26666668
      value: 0.1968962
      inSlope: 1.1180832
      outSlope: 1.4731243
      tangentMode: 0
      weightedMode: 3
      inWeight: 0.33333334
      outWeight: 0.33333334
    - serializedVersion: 3
      time: 0.28333333
      value: 0.22144824
      inSlope: 1.4731243
      outSlope: 1.7319903
      tangentMode: 0
      weightedMode: 3
      inWeight: 0.33333334
      outWeight: 0.33333334
    - serializedVersion: 3
      time: 0.3
      value: 0.25031477
      inSlope: 1.7319903
      outSlope: 1.8840426
      tangentMode: 0
      weightedMode: 3
      inWeight: 0.33333334
      outWeight: 0.33333334
    - serializedVersion: 3
      time: 0.31666666
      value: 0.28171545
      inSlope: 1.8840426
      outSlope: 1.9229993
      tangentMode: 0
      weightedMode: 3
      inWeight: 0.33333334
      outWeight: 0.33333334
    - serializedVersion: 3
      time: 0.33333334
      value: 0.31376547
      inSlope: 1.9229993
      outSlope: 1.8268114
      tangentMode: 0
      weightedMode: 3
      inWeight: 0.33333334
      outWeight: 0.33333334
    - serializedVersion: 3
      time: 0.35
      value: 0.3442123
      inSlope: 1.8268114
      outSlope: 1.6015135
      tangentMode: 0
      weightedMode: 3
      inWeight: 0.33333334
      outWeight: 0.33333334
    - serializedVersion: 3
      time: 0.36666667
      value: 0.3709042
      inSlope: 1.6015135
      outSlope: 1.2512803
      tangentMode: 0
      weightedMode: 3
      inWeight: 0.33333334
      outWeight: 0.33333334
    - serializedVersion: 3
      time: 0.38333333
      value: 0.39175886
      inSlope: 1.2512803
      outSlope: 0.7845848
      tangentMode: 0
      weightedMode: 3
      inWeight: 0.33333334
      outWeight: 0.33333334
    - serializedVersion: 3
      time: 0.4
      value: 0.40483528
      inSlope: 0.7845848
      outSlope: 0.21256706
      tangentMode: 0
      weightedMode: 3
      inWeight: 0.33333334
      outWeight: 0.33333334
    - serializedVersion: 3
      time: 0.41666666
      value: 0.40837806
      inSlope: 0.21256706
      outSlope: -0.31630728
      tangentMode: 0
      weightedMode: 3
      inWeight: 0.33333334
      outWeight: 0.33333334
    - serializedVersion: 3
      time: 0.43333334
      value: 0.40310627
      inSlope: -0.31630728
      outSlope: -0.6765396
      tangentMode: 0
      weightedMode: 3
      inWeight: 0.33333334
      outWeight: 0.33333334
    - serializedVersion: 3
      time: 0.45
      value: 0.39183062
      inSlope: -0.6765396
      outSlope: -1.0119716
      tangentMode: 0
      weightedMode: 3
      inWeight: 0.33333334
      outWeight: 0.33333334
    - serializedVersion: 3
      time: 0.46666667
      value: 0.37496442
      inSlope: -1.0119716
      outSlope: -1.2889385
      tangentMode: 0
      weightedMode: 3
      inWeight: 0.33333334
      outWeight: 0.33333334
    - serializedVersion: 3
      time: 0.48333332
      value: 0.35348213
      inSlope: -1.2889385
      outSlope: -1.4330852
      tangentMode: 0
      weightedMode: 3
      inWeight: 0.33333334
      outWeight: 0.33333334
    - serializedVersion: 3
      time: 0.5
      value: 0.32959735
      inSlope: -1.4330852
      outSlope: -1.2178743
      tangentMode: 0
      weightedMode: 3
      inWeight: 0.33333334
      outWeight: 0.33333334
    - serializedVersion: 3
      time: 0.51666665
      value: 0.30929947
      inSlope: -1.2178743
      outSlope: -1.1290783
      tangentMode: 0
      weightedMode: 3
      inWeight: 0.33333334
      outWeight: 0.33333334
    - serializedVersion: 3
      time: 0.53333336
      value: 0.29048145
      inSlope: -1.1290783
      outSlope: -1.0531328
      tangentMode: 0
      weightedMode: 3
      inWeight: 0.33333334
      outWeight: 0.33333334
    - serializedVersion: 3
      time: 0.55
      value: 0.27292925
      inSlope: -1.0531328
      outSlope: -1.0003326
      tangentMode: 0
      weightedMode: 3
      inWeight: 0.33333334
      outWeight: 0.33333334
    - serializedVersion: 3
      time: 0.56666666
      value: 0.25625706
      inSlope: -1.0003326
      outSlope: -0.9130785
      tangentMode: 0
      weightedMode: 3
      inWeight: 0.33333334
      outWeight: 0.33333334
    - serializedVersion: 3
      time: 0.5833333
      value: 0.2410391
      inSlope: -0.9130785
      outSlope: -0.84041613
      tangentMode: 0
      weightedMode: 3
      inWeight: 0.33333334
      outWeight: 0.33333334
    - serializedVersion: 3
      time: 0.6
      value: 0.22703212
      inSlope: -0.84041613
      outSlope: -1.1173056
      tangentMode: 0
      weightedMode: 3
      inWeight: 0.33333334
      outWeight: 0.33333334
    - serializedVersion: 3
      time: 0.6166667
      value: 0.20841038
      inSlope: -1.1173056
      outSlope: -1.2167978
      tangentMode: 0
      weightedMode: 3
      inWeight: 0.33333334
      outWeight: 0.33333334
    - serializedVersion: 3
      time: 0.6333333
      value: 0.18813044
      inSlope: -1.2167978
      outSlope: -0.99862313
      tangentMode: 0
      weightedMode: 3
      inWeight: 0.33333334
      outWeight: 0.33333334
    - serializedVersion: 3
      time: 0.65
      value: 0.17148674
      inSlope: -0.99862313
      outSlope: -0.45793056
      tangentMode: 0
      weightedMode: 3
      inWeight: 0.33333334
      outWeight: 0.33333334
    - serializedVersion: 3
      time: 0.6666667
      value: 0.16385454
      inSlope: -0.45793056
      outSlope: 0.038137473
      tangentMode: 0
      weightedMode: 3
      inWeight: 0.33333334
      outWeight: 0.33333334
    - serializedVersion: 3
      time: 0.68333334
      value: 0.16449016
      inSlope: 0.038137473
      outSlope: 0.08183606
      tangentMode: 0
      weightedMode: 3
      inWeight: 0.33333334
      outWeight: 0.33333334
    - serializedVersion: 3
      time: 0.7
      value: 0.1658541
      inSlope: 0.08183606
      outSlope: 0.12089264
      tangentMode: 0
      weightedMode: 3
      inWeight: 0.33333334
      outWeight: 0.33333334
    - serializedVersion: 3
      time: 0.71666664
      value: 0.16786897
      inSlope: 0.12089264
      outSlope: 0.15534957
      tangentMode: 0
      weightedMode: 3
      inWeight: 0.33333334
      outWeight: 0.33333334
    - serializedVersion: 3
      time: 0.73333335
      value: 0.17045814
      inSlope: 0.15534957
      outSlope: 0.18513697
      tangentMode: 0
      weightedMode: 3
      inWeight: 0.33333334
      outWeight: 0.33333334
    - serializedVersion: 3
      time: 0.75
      value: 0.17354375
      inSlope: 0.18513697
      outSlope: 0.2102675
      tangentMode: 0
      weightedMode: 3
      inWeight: 0.33333334
      outWeight: 0.33333334
    - serializedVersion: 3
      time: 0.76666665
      value: 0.1770482
      inSlope: 0.2102675
      outSlope: 0.23070155
      tangentMode: 0
      weightedMode: 3
      inWeight: 0.33333334
      outWeight: 0.33333334
    - serializedVersion: 3
      time: 0.78333336
      value: 0.18089324
      inSlope: 0.23070155
      outSlope: 0.24625206
      tangentMode: 0
      weightedMode: 3
      inWeight: 0.33333334
      outWeight: 0.33333334
    - serializedVersion: 3
      time: 0.8
      value: 0.18499744
      inSlope: 0.24625206
      outSlope: 0.25725627
      tangentMode: 0
      weightedMode: 3
      inWeight: 0.33333334
      outWeight: 0.33333334
    - serializedVersion: 3
      time: 0.81666666
      value: 0.18928504
      inSlope: 0.25725627
      outSlope: 0.26250625
      tangentMode: 0
      weightedMode: 3
      inWeight: 0.33333334
      outWeight: 0.33333334
    - serializedVersion: 3
      time: 0.8333333
      value: 0.19366014
      inSlope: 0.26250625
      outSlope: 0.2642291
      tangentMode: 0
      weightedMode: 3
      inWeight: 0.33333334
      outWeight: 0.33333334
    - serializedVersion: 3
      time: 0.85
      value: 0.19806397
      inSlope: 0.2642291
      outSlope: 0.2602532
      tangentMode: 0
      weightedMode: 3
      inWeight: 0.33333334
      outWeight: 0.33333334
    - serializedVersion: 3
      time: 0.8666667
      value: 0.20240152
      inSlope: 0.2602532
      outSlope: 0.25113726
      tangentMode: 0
      weightedMode: 3
      inWeight: 0.33333334
      outWeight: 0.33333334
    - serializedVersion: 3
      time: 0.8833333
      value: 0.20658714
      inSlope: 0.25113726
      outSlope: 0.23719333
      tangentMode: 0
      weightedMode: 3
      inWeight: 0.33333334
      outWeight: 0.33333334
    - serializedVersion: 3
      time: 0.9
      value: 0.21054035
      inSlope: 0.23719333
      outSlope: 0.21797004
      tangentMode: 0
      weightedMode: 3
      inWeight: 0.33333334
      outWeight: 0.33333334
    - serializedVersion: 3
      time: 0.9166667
      value: 0.2141732
      inSlope: 0.21797004
      outSlope: 0.19358057
      tangentMode: 0
      weightedMode: 3
      inWeight: 0.33333334
      outWeight: 0.33333334
    - serializedVersion: 3
      time: 0.93333334
      value: 0.21739954
      inSlope: 0.19358057
      outSlope: 0.16401187
      tangentMode: 0
      weightedMode: 3
      inWeight: 0.33333334
      outWeight: 0.33333334
    - serializedVersion: 3
      time: 0.95
      value: 0.22013307
      inSlope: 0.16401187
      outSlope: 0.12932909
      tangentMode: 0
      weightedMode: 3
      inWeight: 0.33333334
      outWeight: 0.33333334
    - serializedVersion: 3
      time: 0.96666664
      value: 0.22228855
      inSlope: 0.12932909
      outSlope: 0.08944965
      tangentMode: 0
      weightedMode: 3
      inWeight: 0.33333334
      outWeight: 0.33333334
    - serializedVersion: 3
      time: 0.98333335
      value: 0.22377938
      inSlope: 0.08944965
      outSlope: 0.044328015
      tangentMode: 0
      weightedMode: 3
      inWeight: 0.33333334
      outWeight: 0.33333334
    - serializedVersion: 3
      time: 1
      value: 0.22451818
      inSlope: 0.044328015
      outSlope: 0.044328015
      tangentMode: 0
      weightedMode: 3
      inWeight: 0.33333334
      outWeight: 0.33333334
    m_PreInfinity: 2
    m_PostInfinity: 2
    m_RotationOrder: 4
  gravityInfluence: 1
  movementMultiplier: 1
  soundEffect: {fileID: 0}
  hitPause: 0
  hitPauseAmount: 0.05
  hitPauseDuration: 0.05
  isAttack: 1
  isBlockable: 1
  pushForce: 0
  poiseDamage: 0
  defenseDamage: 1
  interruptible: 0
  vulnerability: 0
  posture: 0
  attackPhase:
    serializedVersion: 2
    m_Curve:
    - serializedVersion: 3
      time: 0
      value: 0
      inSlope: Infinity
      outSlope: Infinity
      tangentMode: 103
      weightedMode: 0
      inWeight: 0
      outWeight: 0
    - serializedVersion: 3
      time: 0.43461308
      value: 1
      inSlope: Infinity
      outSlope: Infinity
      tangentMode: 103
      weightedMode: 0
      inWeight: 0
      outWeight: 0
    - serializedVersion: 3
      time: 0.7077477
      value: 2
      inSlope: Infinity
      outSlope: Infinity
      tangentMode: 103
      weightedMode: 0
      inWeight: 0
      outWeight: 0
    - serializedVersion: 3
      time: 1
      value: 2
      inSlope: Infinity
      outSlope: Infinity
      tangentMode: 103
      weightedMode: 0
      inWeight: 0
      outWeight: 0
    m_PreInfinity: 2
    m_PostInfinity: 2
    m_RotationOrder: 4
  actionsOnExecute: {fileID: 8322146693001480857, guid: 5284b7eb5b718d041b423a05a036cfca, type: 3}
  actionsOnHit: {fileID: 9037544728640102981, guid: b69f82353db40014496ead4d96fceb30, type: 3}
