%YAML 1.1
%TAG !u! tag:unity3d.com,2011:
--- !u!1 &138024
GameObject:
  m_ObjectHideFlags: 0
  m_CorrespondingSourceObject: {fileID: 0}
  m_PrefabInstance: {fileID: 0}
  m_PrefabAsset: {fileID: 0}
  serializedVersion: 6
  m_Component:
  - component: {fileID: 452112}
  - component: {fileID: 3389452}
  - component: {fileID: 2321604}
  - component: {fileID: 64117480093628612}
  - component: {fileID: 1667894847755455988}
  m_Layer: 0
  m_Name: SM_Wep_Crystal_DoubleSword_01
  m_TagString: Untagged
  m_Icon: {fileID: 0}
  m_NavMeshLayer: 0
  m_StaticEditorFlags: 0
  m_IsActive: 1
--- !u!4 &452112
Transform:
  m_ObjectHideFlags: 0
  m_CorrespondingSourceObject: {fileID: 0}
  m_PrefabInstance: {fileID: 0}
  m_PrefabAsset: {fileID: 0}
  m_GameObject: {fileID: 138024}
  m_LocalRotation: {x: 0.32381353, y: -0.61877143, z: 0.55531484, w: -0.45154414}
  m_LocalPosition: {x: 8.8, y: 1.1, z: 10.8}
  m_LocalScale: {x: 1, y: 1, z: 1}
  m_Children: []
  m_Father: {fileID: 0}
  m_RootOrder: 0
  m_LocalEulerAnglesHint: {x: 23.253, y: 88.47, z: 280.888}
--- !u!33 &3389452
MeshFilter:
  m_ObjectHideFlags: 0
  m_CorrespondingSourceObject: {fileID: 0}
  m_PrefabInstance: {fileID: 0}
  m_PrefabAsset: {fileID: 0}
  m_GameObject: {fileID: 138024}
  m_Mesh: {fileID: 4300000, guid: e2f77c2fb4cfd2d448dfde6939fd0c05, type: 3}
--- !u!23 &2321604
MeshRenderer:
  m_ObjectHideFlags: 0
  m_CorrespondingSourceObject: {fileID: 0}
  m_PrefabInstance: {fileID: 0}
  m_PrefabAsset: {fileID: 0}
  m_GameObject: {fileID: 138024}
  m_Enabled: 1
  m_CastShadows: 1
  m_ReceiveShadows: 1
  m_DynamicOccludee: 1
  m_MotionVectors: 1
  m_LightProbeUsage: 1
  m_ReflectionProbeUsage: 1
  m_RayTracingMode: 2
  m_RayTraceProcedural: 0
  m_RenderingLayerMask: 1
  m_RendererPriority: 0
  m_Materials:
  - {fileID: 2100000, guid: 42b64fdb315e3054ea757d8d1c4bcfa7, type: 2}
  m_StaticBatchInfo:
    firstSubMesh: 0
    subMeshCount: 0
  m_StaticBatchRoot: {fileID: 0}
  m_ProbeAnchor: {fileID: 0}
  m_LightProbeVolumeOverride: {fileID: 0}
  m_ScaleInLightmap: 1
  m_ReceiveGI: 1
  m_PreserveUVs: 0
  m_IgnoreNormalsForChartDetection: 0
  m_ImportantGI: 0
  m_StitchLightmapSeams: 0
  m_SelectedEditorRenderState: 3
  m_MinimumChartSize: 4
  m_AutoUVMaxDistance: 0.5
  m_AutoUVMaxAngle: 89
  m_LightmapParameters: {fileID: 0}
  m_SortingLayerID: 0
  m_SortingLayer: 0
  m_SortingOrder: 0
  m_AdditionalVertexStreams: {fileID: 0}
--- !u!64 &64117480093628612
MeshCollider:
  m_ObjectHideFlags: 0
  m_CorrespondingSourceObject: {fileID: 0}
  m_PrefabInstance: {fileID: 0}
  m_PrefabAsset: {fileID: 0}
  m_GameObject: {fileID: 138024}
  m_Material: {fileID: 0}
  m_IsTrigger: 0
  m_Enabled: 0
  serializedVersion: 4
  m_Convex: 1
  m_CookingOptions: 30
  m_Mesh: {fileID: 43873360945913592, guid: 59447c218a1585b40bc6aabb3a596a2a, type: 2}
--- !u!114 &1667894847755455988
MonoBehaviour:
  m_ObjectHideFlags: 0
  m_CorrespondingSourceObject: {fileID: 0}
  m_PrefabInstance: {fileID: 0}
  m_PrefabAsset: {fileID: 0}
  m_GameObject: {fileID: 138024}
  m_Enabled: 1
  m_EditorHideFlags: 0
  m_Script: {fileID: 11500000, guid: 46ce5ca9303944be08d0e95a6aab1c2c, type: 3}
  m_Name: 
  m_EditorClassIdentifier: 
  bone: 18
  captureHits: 2
  layerMask:
    serializedVersion: 2
    m_Bits: 4294967295
  segmentResolution: 0.05
  pointA: {x: 0, y: 0, z: 0}
  pointB: {x: 0, y: 0, z: 0}
  radius: 0.5
  offset: {x: 0, y: 0, z: 0}
  boxInterframePredictions: 0
  boxCenter: {x: 0, y: 0.85, z: 0}
  boxSize: {x: 0.3, y: 1.5, z: 0.4}
  debugMode: 0
  EventAttackStart:
    m_PersistentCalls:
      m_Calls: []
  EventAttackEnd:
    m_PersistentCalls:
      m_Calls: []
  EventAttackActivation:
    m_PersistentCalls:
      m_Calls: []
  EventAttackRecovery:
    m_PersistentCalls:
      m_Calls: []
  enableWeaponTrail: 0
  trailMaterial: {fileID: 2100000, guid: 8b1e2f52bfa7c264d8a9f5d738d8161b, type: 2}
  trailGranularity: 100
  trailDuration: 0.1
