%YAML 1.1
%TAG !u! tag:unity3d.com,2011:
--- !u!114 &11400000
MonoBehaviour:
  m_ObjectHideFlags: 0
  m_CorrespondingSourceObject: {fileID: 0}
  m_PrefabInstance: {fileID: 0}
  m_PrefabAsset: {fileID: 0}
  m_GameObject: {fileID: 0}
  m_Enabled: 1
  m_EditorHideFlags: 0
  m_Script: {fileID: 11500000, guid: f84d575e15c40443894df03f985f2eed, type: 3}
  m_Name: hammerShield
  m_EditorClassIdentifier: 
  shieldName:
    content: AxeShield
    postProcess: 0
    translationID: 0
  shieldDescription:
    content: defaultShield for all axes
    postProcess: 0
    translationID: 0
  prefab: {fileID: 0}
  attachment: 18
  positionOffset: {x: 0, y: 0, z: 0}
  rotationOffset: {x: 0, y: 0, z: 0}
  perfectBlockClip: {fileID: 11400000, guid: 9da99f7f1026254498bebc0dcf81d8b7, type: 2}
  blockingHitReaction:
  - {fileID: 11400000, guid: 2ba201b83514e634f9677e839d08ca9b, type: 2}
  - {fileID: 11400000, guid: 2ba201b83514e634f9677e839d08ca9b, type: 2}
  - {fileID: 11400000, guid: 2ba201b83514e634f9677e839d08ca9b, type: 2}
  groundPerfectBlockReaction: {fileID: 11400000, guid: 2c7754799f16b57418403f5caa96ca31, type: 2}
  airbornPerfectBlockReaction: {fileID: 11400000, guid: 2c7754799f16b57418403f5caa96ca31, type: 2}
  defendState: {fileID: 11400000, guid: 22f9361689c3d5c41aa4db2669f79dbe, type: 2}
  defendMask: {fileID: 31900000, guid: f98c7cdcf31c34677a3ce87d96135a28, type: 2}
  lowerBodyRotation: 0
  defenseAngle:
    optionIndex: 0
    value: 120
    global:
      allowTypesMask: 4
      name: 
    local:
      allowTypesMask: 4
      name: 
      targetType: 2
      targetObject: {fileID: 0}
    list:
      targetType: 3
      targetObject: {fileID: 0}
      select: 1
      index: 0
  defenseRecoveryRate:
    optionIndex: 0
    value: 0.5
    global:
      allowTypesMask: 4
      name: 
    local:
      allowTypesMask: 4
      name: 
      targetType: 2
      targetObject: {fileID: 0}
    list:
      targetType: 3
      targetObject: {fileID: 0}
      select: 1
      index: 0
  maxDefense:
    optionIndex: 0
    value: 3
    global:
      allowTypesMask: 4
      name: 
    local:
      allowTypesMask: 4
      name: 
      targetType: 2
      targetObject: {fileID: 0}
    list:
      targetType: 3
      targetObject: {fileID: 0}
      select: 1
      index: 0
  delayDefense:
    optionIndex: 0
    value: 0.75
    global:
      allowTypesMask: 4
      name: 
    local:
      allowTypesMask: 4
      name: 
      targetType: 2
      targetObject: {fileID: 0}
    list:
      targetType: 3
      targetObject: {fileID: 0}
      select: 1
      index: 0
  perfectBlockWindow: 0.2
  audioBlock: {fileID: 8300000, guid: fb94972ad123749059532c7e4551c620, type: 3}
  audioPerfectBlock: {fileID: 8300000, guid: 5c34718ee73304d6f869941b8789a77e, type: 3}
  prefabImpactBlock: {fileID: 4329036519906242892, guid: cd4c04229338348b2b653790e4ca1042, type: 3}
  prefabImpactPerfectBlock: {fileID: 4329036519906242892, guid: d148929d442b347c0bf239d9015c7d2c, type: 3}
